<svg xmlns="http://www.w3.org/2000/svg" id="svg3636" width="267.1" height="537.1" xmlns:xlink="http://www.w3.org/1999/xlink">
  <defs id="defs3638">
    <linearGradient id="linearGradient6199">
      <stop id="stop6201" offset="0" stop-color="#a9894a"/>
      <stop id="stop6203" offset="1" stop-color="#d7c390"/>
    </linearGradient>
    <mask id="mask7218" maskUnits="userSpaceOnUse">
      <rect id="rect7220" width="108.5" height="218.2" x="119" y="139.2" fill="#d7c390" ry="11.4" rx="11.4"/>
    </mask>
    <radialGradient id="radialGradient7416-5" cx="531.3" cy="481.7" r="22.9" xlink:href="#linearGradient7410-9" fx="531.3" fy="481.7" gradientTransform="matrix(1 0 0 29.3 0 -13797.7)" gradientUnits="userSpaceOnUse"/>
    <linearGradient id="linearGradient7410-9">
      <stop id="stop7412-9" offset="0" stop-color="#fff"/>
      <stop id="stop7414-1" offset="1" stop-color="#fff" stop-opacity="0"/>
    </linearGradient>
    <filter id="filter7442-7" width="3.4" height="1.1" x="-1.2" y="0" color-interpolation-filters="sRGB">
      <feGaussianBlur id="feGaussianBlur7444-2" stdDeviation="9.7"/>
    </filter>
    <radialGradient id="radialGradient7493" cx="531.3" cy="481.7" r="22.9" fy="481.7" fx="531.3" gradientTransform="matrix(1 0 0 29.3 -297.7 -13797.7)" gradientUnits="userSpaceOnUse" xlink:href="#linearGradient7410-9"/>
    <mask id="mask7218-9" maskUnits="userSpaceOnUse">
      <rect id="rect7220-5" width="108.5" height="218.2" x="119" y="139.2" fill="#d7c390" ry="11.4" rx="11.4"/>
    </mask>
  </defs>
  <path id="head-background" fill="#aa8d23" stroke="#4a3902" stroke-width=".5" d="M165 103.4c6.3 6 1 16-4.5 14-1 5.4 5.2.8 5.6 9 1 8.2-11 5.5-12 3-2 7.8-6 6.8-8 5.5 1 4-20 8-39-7-4 10-9 11-12 0-7 0-10 0-7-9 0-5-2-8 1-17 3-8 15-29 40-28s36 22 39 27z" overflow="visible" color="#000"/>
  <g id="g6429">
    <path id="path20622-6" fill="#967b3a" stroke="#4f2600" stroke-width=".5" d="M208.7 382.8c-.3-4.6 2-9.3 6-9.8-4-1.7-7-1.4-8.5 3.8 0-6.2-1-9-5-11.7-1 7 1.3 13 2 15-3.6-4-4.6-7-14.8-5 8.2 2 8.5 3 10.5 10-6-3-6-3-14-2 9 3 11 3 14 13 4-3 8-12 8-12z" overflow="visible" color="#000"/>
    <path id="path17458-3" fill="#f0d29e" stroke="#897553" stroke-width=".5" d="M23.8 369.4c26.2-3.6 28 6 35.3 8.5 8 2 11 9 15 10s4 5 6 5c9 0 15 11 30 11 15-1 22 2 30 0 9-2 16 2 21 2 6 0 11 10 19 9s7-15 13-19 10-14 19-16 19-14 31-14v97H25z" color="#000" overflow="visible"/>
    <path id="path17460-5" fill="none" stroke="#897553" stroke-width=".5" d="M80.5 393.4c-6-1.3-9.8-1.4-12.8 1s-7.3 6-11.6 9c-4 3.2-14 7.5-17 8.7-3 2-11 0-14 5" stroke-linejoin="round" stroke-linecap="round" overflow="visible" color="#000"/>
    <path id="path17462-6" fill="none" stroke="#897553" stroke-width=".5" d="M75 401c-3.7 5-1.2 8-8.5 8.6-7.4.7-9.2-.6-14.7 3-5.5 3.7-16.5 9.8-23.2 9.8" stroke-linejoin="round" stroke-linecap="round" overflow="visible" color="#000"/>
    <path id="path17464-4" fill="none" stroke="#897553" stroke-width=".5" d="M148.8 430.4c-8-2.5-12.8-9.2-18.3-12.2s-10.4-6-18.3-4.3" stroke-linejoin="round" stroke-linecap="round" overflow="visible" color="#000"/>
    <path id="path17466-0" fill="none" stroke="#897553" stroke-width=".5" d="M109.2 411c4.8-2.6 11.6-.7 20-2.6 8.6-1.8 7.4-3.6 16.6-3.6" stroke-linejoin="round" stroke-linecap="round" overflow="visible" color="#000"/>
    <path id="path17468-6" fill="#f2cc21" stroke="#75681b" stroke-width=".5" d="M143.3 368.2c-5.5 8.5-2.4 13.4-4.2 18.3-1 5 3 18.3 6 17.7 3-.7 6-11.6 3-16.5-3-5-7-14.6-3-19.5z" overflow="visible" color="#000"/>
  </g>
  <path id="path54379-6" fill="#e6dcbe" stroke="#b7a288" stroke-width=".5" d="M241.7 395.5c-13.8-.8-16 15.6-22.2 16.8-6.2 1.2-12.6 4.8-11.8 15 .8 10 26.8 10 33.4 10 0-10 1-41.8 1-41.8z" color="#000" overflow="visible"/>
  <g id="right-arm-group">
    <g id="right-arm">
      <path id="path20614-6" fill="#135e36" stroke="#083a24" stroke-width=".5" d="M163.8 202.4c19.7 18.8 49 24.5 57.7 13.5 11-14-25-47-31.5-54s-25 38-26.2 40z" color="#000" overflow="visible"/>
      <path id="path3054-8" fill="#95d9e9" stroke="#597985" stroke-width=".5" d="M167.4 187.7c9.6 11.2 15.2 4.5 13.5-4.5 6 3.4 10 2.2 9-8 7 1.2 17 2.3 1-15.7-5 9-22 26-24 28.2z"/>
      <path id="path3058-9" fill="#f2cc21" stroke="#75681b" stroke-width=".5" d="M191 160.6c-10-10-16.8-17.4-25.8-16.8-24.4 14.5-12.8 41.8-3.4 46.5 8-2.3 27.7-21.8 29.3-29.7z"/>
    </g>
    <g id="right-forearm-hand">
      <g id="right-hand">
        <path id="path17496-6" fill="#f6d096" stroke="#65583b" stroke-width=".5" d="M209.7 161.8c0-4.3 1.7-6.6-1-8.2-2.6-1.7-3.2-9.2-3.2-11.8 0-2.6-1.3-2.6-2.3-4-1-1.3-.4-3.6-3.3-6-3-2.2 1-5 3-4 1 .4 1 2.8 3 6 2 2.4 3 4.7 3 6 3 .6 9 3.5 6 15.3" stroke-linejoin="round" stroke-linecap="round" overflow="visible" color="#000"/>
        <path id="path15168-4" fill="#8ea5a8" stroke="#627e84" stroke-width=".5" d="M198 154.2c2.8-2.8 37.2-46.2 40-49 4.7-5-1.8-10.8-7.2-4.6-2.8 3.2-36.5 47-38.8 49.8-3 3.3 2 7.7 6 3.8z" overflow="visible" color="#000"/>
        <path id="path20616-3" fill="#f6d096" stroke="#65583b" stroke-width=".5" d="M209.8 154c1 1-.2 5.2-.2 7.8.2 7.2 15.2 5.8 15.6.2.4-6 4.6-10.4 6-14.3 1.2-4 1.2-21 .5-23.3-.6-2.3-5.6-6-7.5-7.5-2-2-3.3 0-3 3-3.3-3-7 2 0 8-5.3-3-8.4 2-2.6 4 0 1-1 4-1 5-2.6 0-4.2 2-5 3" stroke-linejoin="round" stroke-linecap="round" overflow="visible" color="#000"/>
        <path id="path54373-0" fill="none" stroke="#65583b" stroke-width=".5" d="M232 130.5c-1.7-1.8-9-8.6-11.3-10.2" overflow="visible" color="#000"/>
        <path id="path54375-3" fill="#f6d096" stroke="#65583b" stroke-width=".5" d="M218.4 132.5c1 .5 2 .5 3 .8 1 1.8 3.4 3 5 3.2-.2 1.6 1.3 4.2 2 6-1-.6-2.5-2.6-2.7-3.4-.2 0-2.4-1-4.2-2l-4.8-1c-1.8 0-3 4-.8 4 2 1 5 2 6 3-1 2-1 6 6 6-7-1-13-3-12 8" overflow="visible" color="#000"/>
        <path id="path9571-1" fill="none" fill-rule="evenodd" stroke="#65583b" stroke-width=".5" d="M220.8 128c1.5 1 2.7 1 3.8 1.8 1.3 1 2.8 1.6 4 2 1 .4 2 1.3 2.3 2.2v9"/>
      </g>
      <g id="right-forearm">
        <path id="path3060-8" fill="#f2cc21" stroke="#75681b" stroke-width=".5" d="M228.3 164.6c.5 18.6 11.3 55.7-13.5 51.8-24.8-4-14-25.3-12-29.8 2.4-4.6 5.2-3.4 5.2-21.4 5.6-3 15.8-1.7 20.3-.6z"/>
        <path id="path17494-3" fill="#b33725" stroke="#681a18" stroke-width=".5" d="M208.4 160c-2.3-.5-5.6 6-1 6.7 4.6.7 17 0 21.4-1.3 4.2-1.3 3-5.6.6-5.6-2.3 0-13.4 1.3-21 .3z" overflow="visible" color="#000"/>
      </g>
    </g>
  </g>
  <path id="left-forearm" fill="#f2cc21" stroke="#75681b" stroke-width=".5" d="M33.3 209c-3.2 2.8-6.5 7.4-5 11 1.3 4 6.4 15 16.6 22 10 7 22 12 39 12.5 1-7.5 3-15.3 8-19.5-4-5-7-7.4-10-10.2-2-12.5-34-31-49-15.8z" overflow="visible" color="#000"/>
  <g id="left-arm">
    <path id="path12086-6-7" fill="#95d9e9" stroke="#597985" stroke-width=".5" d="M90 187.7c.4 14-1.5 31.5-5.6 38-4.2 6.5-9 1-8-5.6-3.6 11-9.2 7-9.2-4-8.8 12-11.6 7-11.6-4-10.6 17-17.2 4-11.6-5-8 10-13.5 7-12-1-2 4-5.2 5-2.4-2 2.8-7 3.6-11 6-16 4.2-8 12-18 15.3-22 7-7 39 9 39 23z" overflow="visible" color="#000"/>
    <path id="path3052-4" fill="#f2cc21" stroke="#75681b" stroke-width=".5" d="M103.7 199.5c-7.3 2.3-11.2-3.4-13-10.7-11.8 12.4-17.4 2.3-18-7.3-10 12.4-18.6 5-16.3-6.8-8 9.6-15.8 6.8-17.5 5.7 9-15.8 23-32.7 54-32 9 16.8 10 45.5 10 51z"/>
    <path id="path12086-0" fill="#135e36" stroke="#083a24" stroke-width=".5" d="M84.4 225.7c-4 6.6-9 1-8-5.6-3.6 11-9.2 7-9.2-4-8.8 12-11.6 7-11.6-4-10.6 17-17.2 4-11.6-5-8 10-13.5 7-12-1-2 4-5.2 5-2.4-2 2.8-7 6-16 6-16 10.2 1 48.4 21 53.4 23-.5 4-1.4 10-4.6 16z" overflow="visible" color="#000"/>
  </g>
  <g id="body">
    <path id="path17484-9" fill="#f6d096" stroke="#65583b" stroke-width=".5" d="M98 147.3c6.7-3 11-5.5 12-8.8 1-3.3.3-7.2 0-9.5-.4-2.3 29.8-36.7 30.8-24.3 1 12.5-1.6 21 0 27.2 1.6 6 10.2 11 14 12 .4 10-22 36-57.3 4" overflow="visible" color="#000"/>
    <path id="path4331-3" fill="#024e7c" stroke="#072432" stroke-width=".5" d="M90.2 147.7c5.6 18.6 7.3 40 9.6 50.7 2.2 10.7 8.4 17 11.8 18-.5 1.5.5 10-4.5 15.2-11 12.3-16 40.8-16 60 12 11.6 57 5.5 59 5.3 6-100-9-112-22-140-6 1-24-6-26-12-3 1-7 1-11 2z"/>
    <path id="path3056-2" fill="#b33725" stroke="#681a18" stroke-width=".5" d="M165.7 143.2c-4 1-11.8 2.2-17.5-2.3-5.6 9-10.7 13-14.6 15 10 24 17 68 17.5 76 1 8-1 51-2 63 28 3 52-3 55-15-1-22 0-37-27-61 0-24-3-61-10-77z"/>
    <path id="path3062-3" fill="#f2cc21" stroke="#75681b" stroke-width=".5" d="M125.7 159c3.4-1.2 10.2-1.7 13.5-.6 5 11.8 17 29.8 14.7 66-3 1-7 .4-11 0-3-28.8-10-50.8-18-65.4z"/>
    <path id="path17492-7" fill="#efedd3" stroke="#59605f" stroke-width=".5" d="M146.7 137.5c-.6 4.3-8.2 13.5-15 13.5-7 0-22.5-5-26.5-8.6-.7.8-2.4 2-4.2 3.3 8.8 9.5 19.8 18.7 33 16 13-2.5 17.3-13.7 19-19.6l-6.3-4z" stroke-linejoin="round" stroke-linecap="round" overflow="visible" color="#000"/>
    <path id="path17510-0" fill="#f2cc21" stroke="#75681b" stroke-width=".5" d="M109 214.6c-1 7-3.7 14-2.7 17 11.8 2 35.5 2 45.3 2 10 0 27.6-11.8 27.6-11.8-2.6-3.3-2-8.5-5.2-8-10.6 2.7-10 9.3-25 10-15 .6-29-6-40-9.2z" overflow="visible" color="#000"/>
    <path id="path17512-0" fill="none" stroke="#75681b" stroke-width=".5" d="M107 222.8c7.8 1.8 24.7 6 41 5 16.8-.8 24-8 30-8.6" overflow="visible" color="#000"/>
    <path id="path20598-9" fill="none" stroke="#65583b" stroke-width=".3" d="M126.7 146c-5.3-.6-7.6 1.3-16-7.2" stroke-linejoin="round" stroke-linecap="round" overflow="visible" color="#000"/>
    <ellipse id="path20604-1" cx="136.7" cy="167.2" fill="#60461c" stroke="#3e320b" stroke-width=".5" stroke-linecap="round" enable-background="new" rx="2.8" ry="2.8" color="#000" overflow="visible"/>
    <ellipse id="path20606-2" cx="141" cy="178.3" fill="#60461c" stroke="#3e320b" stroke-width=".5" stroke-linecap="round" enable-background="new" rx="2.8" ry="2.8" color="#000" overflow="visible"/>
    <ellipse id="path20608-5" cx="144.2" cy="188.8" fill="#60461c" stroke="#3e320b" stroke-width=".5" stroke-linecap="round" enable-background="new" rx="2.8" ry="2.8" color="#000" overflow="visible"/>
    <ellipse id="path20610-4" cx="146.5" cy="202.3" fill="#60461c" stroke="#3e320b" stroke-width=".5" stroke-linecap="round" enable-background="new" rx="2.8" ry="2.8" color="#000" overflow="visible"/>
    <ellipse id="path20612-2" cx="147.9" cy="215.7" fill="#60461c" stroke="#3e320b" stroke-width=".5" stroke-linecap="round" enable-background="new" rx="2.8" ry="2.8" color="#000" overflow="visible"/>
  </g>
  <g id="g6505">
    <path id="path15704-0" fill="#f2cc21" stroke="#75681b" stroke-width=".5" d="M172.4 409c-2 6-1.8 17.8.6 19 8.3 4 11.3 0 15.6 2.5 4.3 2.6 1 6 11 7 10 .8 13.8-.5 14.2-2.2.4-1.8.4-8.3-10.4-11.7-11-3.5-14-12.2-14-13.5 0-1-1-3-17-1z" overflow="visible" color="#000"/>
    <path id="path15700-1" fill="#f2cc21" stroke="#75681b" stroke-width=".5" d="M81.3 406.2c-5.3 6-4 9-8.3 12-4.3 3.2-4.8 4-9.6 5-4.7.8-8.7 3-8.2 12 9-2 17 3.2 24-5.6 2.4-3 7.3-4.7 15-5.2 8-.4 8.4-4.7 4.4-17-7-6.4-16-2-17.3-1.2z" overflow="visible" color="#000"/>
    <path id="path15049-3" fill="#135e36" stroke="#063522" stroke-width=".5" d="M95.2 282.8c-2.6 14.4-4 49.2-2.6 57 1.3 8-2 13.2-6 23s-1.3 23-2.6 27c-1.3 3.8-4 15-4 21.5-1.7 8.3 9 5 11.8 1.8 2.8-3 3.7-2 7.4-3s3.3-14 6-18c2.8-4 7-9 7-15 0-5 1.4-4 3.7-8 2-4 3-7 6-13 2-5 18-24 25-59" overflow="visible" color="#000"/>
    <path id="path15049-9-3" fill="#135e36" stroke="#063522" stroke-width=".5" d="M194 277.7c1.3 19.3-2.7 45-3.4 52.8-.4 4.7-3.3 9-1.3 19.5 2 10.4.8 31.6.4 36.2-.3 4 .2 16-.6 22.4 0 4.7-1 5.4-3 5.7-3 .5-16-6.6-14-4.7 3 2.6 1-10.2 0-15.6 0-5.6-2-10-4-14.5-2-3.6-4-7.6-5-12-1-4.7-1-17.3-3-23.3s-9-20.2-10-56" overflow="visible" color="#000"/>
    <path id="path15702-5" fill="#f2cc21" stroke="#75681b" stroke-width=".5" d="M93.2 410.5c2.7.4 6-2.5 6.5-1.3.8 2.8-6.3 10.4-19.2 7.2-1.7-.4-6 1.7-7 1-3.4-3.2 3-9.7 6.3-7.5.5 2 1 4 3 6 4.4-1 7.7-3 10.4-6z" overflow="visible" color="#000"/>
    <path id="path9573-8" fill="#f2cc21" fill-rule="evenodd" stroke="#75681b" stroke-width=".5" d="M186.8 414.5s-1.8 5.4-3.6 5.4c-2 0-13-6-13.2-8 1-2 1.3-3 1.8-5 4 4 13.2 5 14.3 5 2 0 4-4 4-6 2 0 3 0 3 1s0 4 2 5c-1 1-2 2-3 2s-4-2-4-2z"/>
  </g>
  <g id="head-foreground">
    <path id="path17470-1" fill="#f6d096" stroke="#65583b" stroke-width=".5" d="M133 133c-1.4 6.8-9.8 9-12.2 7-2.6-2-9-3.8-11.2-6-2.3-2.4-9.5-10-7-15.5-4-2.6-4-6.3-3.2-8.2.5-1.2-4-7-2-17.4C99.8 81 111 75 119 74c14-2 23.7 4 25 18 1.5 12.6-2.4 17.5-3.4 27" overflow="visible" color="#000" stroke-linecap="round" stroke-linejoin="round"/>
    <path id="path17474-8" fill="#efedd3" stroke="#65583b" stroke-width=".5" d="M129.6 105.7c-4.6-2.6-8.8-1.3-11.4 4 2.6 4 6.8 1.6 11.4-4z" overflow="visible" color="#000"/>
    <path id="path17476-9" fill="#efedd3" stroke="#65583b" stroke-width=".5" d="M111.3 114.6c-1.7 4.2-6 6.6-9.2 3.5 1-3 3-6 10-3z" overflow="visible" color="#000"/>
    <path id="right-brow" fill="#aa8d23" stroke-width=".5" d="M132.6 100.8c-6.6-3-12.8-2.6-19.7 3 0 1.6 2 1 3 1.2 3-3 6-5.2 16-4.2z" overflow="visible" color="#000"/>
    <path id="left-brow" fill="#aa8d23" stroke-width=".5" d="M109 105c.6 1.4 1.6 2.3 1 3.7-5-.4-8-1.4-10.6 6.2-1.6-5 .4-8 1.7-9 2-1 6 0 8-1z" overflow="visible" color="#000"/>
    <path id="path17482-3" fill="none" stroke="#65583b" stroke-width=".5" d="M110.3 108.3c2 1.3 2.6 2.3 3 6.3.3 4-.7 5-1 6.5-.4 2-1 7 7.5 2" overflow="visible" color="#000" stroke-linecap="round" stroke-linejoin="round"/>
    <path id="path17486-1" fill="none" stroke="#65583b" stroke-width=".5" d="M118.2 122c1.6-.6 4.2.4 6.2-.6s-3-4.2-4-3.2" overflow="visible" color="#000" stroke-linecap="round" stroke-linejoin="round"/>
    <path id="path17488-8" fill="none" stroke="#65583b" stroke-width=".5" d="M127 125.4c-1 3.5-4 1.6-6 3.6-2.2.3-1.3 3-5.4 2.8" overflow="visible" color="#000" stroke-linecap="round" stroke-linejoin="round"/>
    <path id="path17490-8" fill="none" stroke="#65583b" stroke-width=".5" d="M119.2 133.3c2.3.6 5.2-.4 7-2.3" overflow="visible" color="#000" stroke-linecap="round" stroke-linejoin="round"/>
    <path id="path20590-1" fill="#aa8d23" stroke="#4a3902" stroke-width=".5" d="M94.5 102c5.6 5 7.2 1.4 7.6-3.2 7 0 10-1.6 10-6.2 7 3.3 13-.3 14-5 2 10.6 10 10.2 13 10 2 7.4 1 16.3 4 18.6 3 2.3 4-2.3 4-2.3 2 2 5 1 5-1 2 3 9-2 9-4 5 0 7-4 7-8-19-26-53-40-71 1z" overflow="visible" color="#000"/>
    <path id="path20594-8" fill="none" stroke="#65583b" stroke-width=".3" d="M121.4 115.5c2.3 1.4 5.3 0 8-2.3" overflow="visible" color="#000" stroke-linecap="round" stroke-linejoin="round"/>
    <path id="path20596-1" fill="none" stroke="#65583b" stroke-width=".3" d="M113 118.2c-.8 2.3-1 6.8-9 5" overflow="visible" color="#000" stroke-linecap="round" stroke-linejoin="round"/>
    <path id="path20600-6" fill="none" stroke="#65583b" stroke-width=".3" d="M122 141.8c-3.2-.4-5.2 1-11.4-4.3" overflow="visible" color="#000" stroke-linecap="round" stroke-linejoin="round"/>
    <path id="right-eye" fill-rule="evenodd" d="M122 106c1.3 2.4.6 7.4-3.2 3.4 1.2-2.3 2-3.2 3-3.5z"/>
    <path id="left-eye" fill-rule="evenodd" d="M104.5 114.6c2 4.4.3 5.6-2 3 0-1.3 1.3-2.2 2-3z"/>
    <path id="path4337-6" fill="#f2cc21" stroke="#edc721" stroke-width=".5" d="M127.4 80.7c-33.8 0-22 37.4-68.2 29.8-11 1-29-7.2-17.5-24.7 12.5-19.2 44.6-21.4 61.5-20.3 9.5-4.5 27.6-6.8 42.2-1 19.2-7 66-1.8 66.5 28.6 0 9-11 22-29 20-22-2-33-31-56-32z"/>
    <path id="path17472-7" fill="#7eab48" stroke="#465723" stroke-width=".5" d="M144.7 65s2.3 1 4.6 2.7c19.4-3 24.3 1.3 40.4 5.5 16 4.3 28 26.3 2.6 26.3-25.2 0-28.5-28.2-62.7-28.2-38.7 0-41.6 33-70.5 33.4-23 .3-14-19 0-26C71 73 92 69 98 70c4-2.7 4-3.7 6.7-4.6" overflow="visible" color="#000"/>
    <path id="path17498-7" fill="#93b8b8" stroke="#44594d" stroke-width=".5" d="M58.8 110.5c37.6 11 42.3-28.8 65.6-29.4 23-.3 36 30.7 58.6 33 16.7 1.7 28.3-10 28.8-20-5.3 12.7-20 13-29 10.5-17.4-5.4-28.2-28.6-55.3-29.2-25.4-.4-32 34.5-68.7 35.5z" overflow="visible" color="#000"/>
    <path id="path17472-7-5" fill="#b33725" stroke="#681a18" stroke-width=".5" d="M59 104.7c-8 0-12-2.3-13-4.6 39 7 36-39.2 79-40 40-.2 37 31 62 39-20-3-24-26.5-59.7-27-35.6-.3-39.3 32.5-68.3 33z" overflow="visible" color="#000"/>
  </g>
  <g id="g6470">
    <path id="path12106-5" fill="#f9d497" stroke="#5e4e1a" stroke-width=".5" d="M92.2 346.7c-.6-1.3-62-62-62-62L241 245.2v59.4z" overflow="visible" color="#000"/>
    <path id="path15047-9" fill="#98b7ac" stroke="#557687" stroke-width=".5" d="M43.3 318.2l-17 103 12.4 4 8.6-4 9-98.4" overflow="visible" color="#000"/>
    <path id="path54377-1" fill="#967b3a" stroke="#4f2600" stroke-width=".5" d="M34 444.4c.5-7.6-5.3-9.4-8.7-10.2 5.2-1.5 7.4-.2 11.7 2-3.3-4.5-8-5.3-12.7-7 8.6-2 13.3.5 15.3 3 .8-2.5-2-9-5.3-11 8.3 3 7.5 5 10 10 2.7-1.7 4-2.5 7.7-2.5-3 2.4-6.2 4.4-3.6 13" overflow="visible" color="#000"/>
    <path id="path9554-8" fill="#a83033" fill-rule="evenodd" stroke="#67160c" stroke-width=".5" d="M24.7 443.3c7.3 1 10.3-6.5 20.3-6 10 .4 6.8-3.3 16.8-2.8 10 .4 14-.4 18.8-5.7 5-5.5 16-1.6 20-7.5 4-6 10 8 10 23.4-7.8 0-67.3.2-86 0z"/>
    <path id="path15047-5-5" fill="#98b7ac" stroke="#557687" stroke-width=".5" d="M99.5 354l-1.7 104c5.3-1 13-3.3 16.6-5.5L113 356" overflow="visible" color="#000"/>
    <path id="path15047-5-8-8" fill="#98b7ac" stroke="#557687" stroke-width=".5" d="M214.7 327l2.6 104 14.4 1.7c-2-35.8-3.2-71.7-4.7-107.5" overflow="visible" color="#000"/>
    <path id="path12106-8-0" fill="#7d6f17" stroke="#5e4e1a" stroke-width=".5" d="M92.2 346.7c-.6-1.3-62-62-62-62L30 307l60 60.8 151-46v-17.4z" overflow="visible" color="#000"/>
    <path id="path20620-2" fill="#a83033" stroke="#67160c" stroke-width=".5" d="M241.6 432c-7.6 1-14.5 1.3-22-1.3-7.6-2.6-12.2 1.6-11.5 12.5 1 10.8 5 16.7 2 22.3 12 .6 31 .3 31 .3z" overflow="visible" color="#000"/>
    <path id="path15051-0" fill="none" stroke="#5e4e1a" stroke-width=".5" d="M90 367.6l2.3-20.7" overflow="visible" color="#000"/>
    <path id="path15053-1-9" fill="#f2cc21" stroke="#75681b" stroke-width=".5" d="M88.3 280.7V296s-7 4.3-10.4 5.2c-4 0-12-3.6-13-6v-14.5c0-4.8 5-8.7 12-8.7s10 4 10 8.7z" overflow="visible" color="#000" stroke-linecap="round" enable-background="new"/>
    <path id="path15110-4" fill="none" stroke="#75681b" stroke-width=".5" d="M77.5 301.2s1-10.2.6-12c0-1.5-2-2-2-5.4 0-3.3-5-3.3-6-4.3" overflow="visible" color="#000"/>
    <ellipse id="path15053-3" cx="77.9" cy="275.4" fill="#f2cc21" stroke="#75681b" stroke-width=".5" color="#000" overflow="visible" rx="13.3" ry="8.7" stroke-linecap="round" enable-background="new"/>
    <path id="path15706-6" fill="#f2cc21" stroke="#75681b" stroke-width=".5" d="M174.3 308c7.3-10 3.4-17.7-7-29-4-4.8-5.6-6.5-5.6-6.5 5.2-.5 3.4-4.8 3.4-6 0-1.4-7-2.7-7 1.6-4 4-1 7 5 14s13 20 13 27z" overflow="visible" color="#000"/>
    <path id="path17514-4" fill="#95d9e9" stroke="#597985" stroke-width=".5" d="M241 290.7c-11.2 7.2-33.6 15-48.7 8.5 0-6 3.3-17 2.7-24.3-.7-8 19-20 45.3-18 .6 17 .6 33 .6 33z" overflow="visible" color="#000"/>
    <circle id="path17518-2" cx="78.8" cy="308.4" r="4.6" fill="#b33725" stroke="#681a18" stroke-width=".5" color="#000" overflow="visible" stroke-linecap="round" enable-background="new"/>
    <circle id="path17520-7" cx="89.3" cy="310.3" r="4.6" fill="#b33725" stroke="#681a18" stroke-width=".5" color="#000" overflow="visible" stroke-linecap="round" enable-background="new"/>
    <circle id="path17522-7" cx="84.7" cy="306.4" r="4.6" fill="#f2cc21" stroke="#75681b" stroke-width=".5" color="#000" overflow="visible" stroke-linecap="round" enable-background="new"/>
    <ellipse id="path20558-7" cx="127.3" cy="304.9" fill="#f2cc21" stroke="#75681b" stroke-width=".5" color="#000" overflow="visible" rx="6.9" ry="6" stroke-linecap="round" enable-background="new"/>
    <ellipse id="path20560-9" cx="131.8" cy="320.6" fill="#f2cc21" stroke="#75681b" stroke-width=".5" color="#000" overflow="visible" rx="6.9" ry="6" stroke-linecap="round" enable-background="new"/>
    <ellipse id="path20562-6" cx="162" cy="310.1" fill="#f2cc21" stroke="#75681b" stroke-width=".5" color="#000" overflow="visible" rx="6.9" ry="6" stroke-linecap="round" enable-background="new"/>
    <ellipse id="path20564-0" cx="127.1" cy="280.5" fill="#f2cc21" stroke="#75681b" stroke-width=".5" color="#000" overflow="visible" rx="6.9" ry="6" stroke-linecap="round" enable-background="new"/>
    <ellipse id="path20566-6" cx="97.1" cy="326.4" fill="#b33725" stroke="#681a18" stroke-width=".5" color="#000" overflow="visible" rx="6.9" ry="6" stroke-linecap="round" enable-background="new"/>
    <path id="path20586-6" fill="#f2cc21" stroke="#75681b" stroke-width=".5" d="M98.8 292.3c.6 1.6 1.6 14 2 15.7.3 1.7 15 2.7 15.7-.3l3.6-15.4s-11-1.6-21 0z" overflow="visible" color="#000"/>
    <path id="path20588-8" fill="#f2cc21" stroke="#75681b" stroke-width=".5" d="M170.7 279c9.5 6.7 20.6-.5 24-4 3.2-3.7 14.7-8.6 19.6-5.7-13-8.5-16.4-3.6-24 1.7-7.5 5.2-5.8 8-19.6 8z" overflow="visible" color="#000"/>
    <path id="path20618-6" fill="#f2cc21" stroke="#75681b" stroke-width=".5" d="M206.8 266.4c0-2-1.2-22-1.2-22s22-6 25-7c4.7.2 9.7 4 11 5.4 1.3 1.3.2 13 .2 13L221 270z" overflow="visible" color="#000"/>
    <path id="path15706-3-9" fill="#f2cc21" stroke="#75681b" stroke-width=".5" d="M143.4 321.2c12.5-5.6 12.7-20.5 11.6-37.7l-3.5.4-.5-5c2.2 0 2.7-1 3.4-2 .7-1-3-5-5.7-4-5.7 1-7 4-4.3 11 3.8 10 2.8 29-1 36z" overflow="visible" color="#000"/>
    <path id="path54381-5" fill="none" stroke="#75681b" stroke-width=".5" d="M205.7 245c7.2-1 14 4 15.4 5.5 6-1.6 21-8 21-8" overflow="visible" color="#000"/>
    <path id="path54383-9" fill="none" stroke="#75681b" stroke-width=".5" d="M221.5 270.5v-20" overflow="visible" color="#000"/>
    <path id="path54385-0" fill="#f2cc21" stroke="#75681b" stroke-width=".5" d="M240.7 256c-2.2 1.7-14.4 12-19.2 13-4.8.7-14.8 1.3-19.4 0-4-1-7-5.7 5-5.7v-3.8s-16-.4-18 7.2c-1 3 4 2.4 8 5.4 8 6 18 5 26 3 8-1 19-10 21-12 1-1 0-7 0-7z" overflow="visible" color="#000"/>
    <ellipse id="path20558-4-2" cx="233" cy="214.8" fill="#f2cc21" stroke="#75681b" stroke-width=".6" ry="6.6" color="#000" overflow="visible" rx="6.5" transform="matrix(.9 .4 -.3 .9 0 0)" stroke-linecap="round" enable-background="new"/>
    <ellipse id="path20558-4-6-2" cx="232.9" cy="214.5" fill="#f2cc21" stroke="#75681b" stroke-width=".3" ry="3.2" color="#000" overflow="visible" rx="3.2" transform="matrix(.9 .4 -.3 .9 0 0)" stroke-linecap="round" enable-background="new"/>
    <ellipse id="path15053-4-5" cx="77.5" cy="275" fill="#b33725" stroke="#681a18" stroke-width=".5" color="#000" overflow="visible" rx="8" ry="5.1" stroke-linecap="round" enable-background="new"/>
    <ellipse id="path15053-45-2" cx="109.6" cy="290.7" fill="#b33725" stroke="#681a18" stroke-width=".5" color="#000" overflow="visible" rx="12.3" ry="6.7" stroke-linecap="round" enable-background="new"/>
  </g>
  <g id="left-cuff-hand">
    <g id="left-hand">
      <path id="path54329-5" fill="#f6d096" stroke="#65583b" stroke-width=".5" d="M99 238.2c3.6 3 5.7 4.3 11.3 4.6 5.6.3 14-.3 15.4.6 1.3 1 2 1 4.6 1.7 2.6 1 2.3 5-1 4-3.3 0-4.6-1-6.6-1-2.2 1-7.5 1-9 1 8.4 1 11.7 5 13.3 7 3 1 3 1 4.3 2 2 0 4 0 5.2 1 3 0 6.3 0 7 2 .6 2 0 4-2 3h-7.3c-2 2-3.6 4-4.6 4H127c-2.3 2-4.6 3-7.2 2-3 2-7 2-7 2l-6.5-4c-1.6-1-10.3-10.4-11.5-12-1.5-1.3-9.4-7.3-7.6-13.3 1.8-6 7.8-7.8 11.8-4.3z" overflow="visible" color="#000" stroke-linecap="round" stroke-linejoin="round"/>
      <path id="path54331-2" fill="#f6d096" stroke="#65583b" stroke-width=".5" d="M117.2 258.4c1.2 1.6 7.2 5.6 8 5.8 1 1 4.3 0 8.5 0" overflow="visible" color="#000" stroke-linecap="round" stroke-linejoin="round"/>
      <path id="path54333-0" fill="#f6d096" stroke="#65583b" stroke-width=".5" d="M114.8 262c1.6 1.3 4.3 3.8 7.6 5.3 1.3.5 3.8.2 4.6.7" overflow="visible" color="#000" stroke-linecap="round" stroke-linejoin="round"/>
      <path id="path54335-1" fill="#f6d096" stroke="#65583b" stroke-width=".5" d="M110 265l9.7 5" overflow="visible" color="#000" stroke-linecap="round" stroke-linejoin="round"/>
      <circle id="path20558-3-6" cx="132.8" cy="253.2" r="5.2" fill="#f2cc21" stroke="#75681b" stroke-width=".5" overflow="visible" enable-background="new" stroke-linecap="round" color="#000"/>
    </g>
    <path id="path54327-0" fill="#b33725" stroke="#681a18" stroke-width=".5" d="M102 241c-.6-2.2 0-4.8-9.4-7.7-9 2.6-10.2 5.5-12.2 20.6 3.6 2 9.5 6 14 2-5.5-3-1.5-19 7.7-16z" overflow="visible" color="#000" stroke-linecap="round" stroke-linejoin="round"/>
  </g>
</svg>
