<svg xmlns="http://www.w3.org/2000/svg" id="svg3636" xmlns:xlink="http://www.w3.org/1999/xlink" viewBox="0 0 267.1 537.1">
  <rect id="cardboard" width="267.1" height="537.1" fill="#d7c390" rx="28" ry="28"/>
  <circle id="path3427" cx="133.6" cy="268.5" r="64.2" fill="#fff"  color="#000" />
  <path id="center-pattern" fill="#d7c390"  d="m207 285.17c-1.3099 5.7691-51.101-16.973-52.592-11.248-1.4904 5.7251 53.07 10.149 51.4 15.825-1.6696 5.6754-49.935-20.148-51.782-14.528-1.847 5.6202 52.328 13.462 50.305 19.021-2.0226 5.5594-48.571-23.244-50.767-17.751-2.1962 5.4931 51.379 16.721 49.011 22.142-2.3677 5.4214-47.016-26.248-49.552-20.904-2.5368 5.3444 50.228 19.914 47.524 25.176-2.7034 5.2621-45.275-29.148-48.142-23.974-2.8674 5.1746 48.878 23.028 45.85 28.11-3.0285 5.0819-43.355-31.934-46.542-26.949-3.1866 4.9843 47.336 26.052 43.994 30.934-3.3416 4.8818-41.264-34.593-44.758-29.818-3.4933 4.7744 45.607 28.973 41.965 33.635-3.6416 4.6623-39.011-37.116-42.797-32.57-3.7862 4.5456 43.698 31.779 39.77 36.204-3.9271 4.4244-36.603-39.492-40.668-35.193-4.0642 4.2989 41.616 34.46 37.419 38.63-4.1972 4.1691-34.051-41.712-38.378-37.677-4.3261 4.0352 39.37 37.006 34.919 40.903-4.4507 3.8973-31.365-43.768-35.936-40.012-4.5709 3.7556 36.969 39.405 32.282 43.015-4.6866 3.6102-28.555-45.651-33.353-42.19-4.7977 3.4612 34.421 41.648 29.517 44.957-4.9041 3.3088-25.632-47.354-30.638-44.201-5.0056 3.1531 31.738 43.727 26.636 46.722-5.1022 2.9943-22.608-48.87-27.802-46.038-5.1937 2.8326 28.93 45.634 23.65 48.302-5.2801 2.6681-19.495-50.193-24.856-47.692-5.3613 2.5009 26.008 47.36 20.57 49.692-5.4372 2.3312-16.305-51.318-21.813-49.159-5.5078 2.1593 22.983 48.9 17.41 50.885-5.5729 1.9852-13.05-52.241-18.683-50.432-5.6325 1.8092 19.867 50.246 14.18 51.878-5.6865 1.6314-9.7444-52.957-15.479-51.505-5.735 1.452 16.673 51.395 10.895 52.666-5.7777 1.2711-6.4-53.465-12.215-52.376-5.8148 1.089 13.413 52.34 7.5664 53.246-5.8462 0.90583-3.0303-53.761-8.902-53.039-5.8717 0.72175 10.1 53.079 4.2082 53.616-5.8915 0.53697 0.35137-53.845-5.5541-53.493-5.9054 0.35164 6.7468 53.609 0.83327 53.775-5.9136 0.16598 3.7316-53.717-2.1842-53.737-5.9159-0.0199 3.3674 53.926-2.5449 53.721-5.9123-0.20567 7.0972-53.376 1.1942-53.768-5.903-0.39127-0.0253 54.031-5.913 53.455-5.8878-0.5765 10.435-52.826 4.568-53.587-5.8667-0.76116-3.4179 53.923-9.2578 52.978-5.8399-0.94506 13.731-52.066 7.9237-53.194-5.8074-1.128-6.797 53.602-12.566 52.292-5.7691-1.3099 16.973-51.101 11.248-52.592-5.7251-1.4905-10.149 53.07-15.825 51.4-5.6754-1.6695 20.148-49.935 14.528-51.782-5.6202-1.847-13.462 52.328-19.021 50.305-5.5594-2.0226 23.244-48.571 17.751-50.767-5.4931-2.1962-16.721 51.379-22.142 49.011-5.4214-2.3677 26.248-47.016 20.904-49.552-5.3444-2.5368-19.914 50.228-25.176 47.524-5.2621-2.7034 29.148-45.275 23.974-48.142-5.1746-2.8674-23.028 48.878-28.11 45.85-5.0819-3.0285 31.934-43.355 26.949-46.542-4.9843-3.1866-26.052 47.336-30.934 43.994-4.8817-3.3416 34.593-41.264 29.819-44.758-4.7744-3.4933-28.973 45.607-33.635 41.965-4.6623-3.6416 37.116-39.011 32.57-42.797-4.5456-3.7862-31.779 43.698-36.204 39.77-4.4244-3.9271 39.492-36.603 35.193-40.668-4.2989-4.0642-34.46 41.616-38.63 37.419-4.1691-4.1972 41.712-34.051 37.677-38.378-4.0352-4.3261-37.006 39.37-40.903 34.919-3.8974-4.4507 43.768-31.365 40.012-35.936-3.7556-4.5709-39.405 36.969-43.015 32.282-3.6102-4.6866 45.651-28.555 42.19-33.353-3.4612-4.7977-41.648 34.421-44.957 29.517-3.3088-4.9041 47.354-25.632 44.201-30.638-3.1531-5.0056-43.727 31.738-46.722 26.636-2.9943-5.1022 48.87-22.608 46.038-27.802-2.8326-5.1937-45.634 28.93-48.302 23.65-2.6681-5.2801 50.193-19.495 47.692-24.856-2.5009-5.3613-47.36 26.008-49.692 20.57-2.3313-5.4372 51.318-16.305 49.159-21.813-2.1593-5.5078-48.9 22.983-50.885 17.41-1.9852-5.5729 52.241-13.05 50.432-18.683-1.8092-5.6325-50.246 19.867-51.878 14.18-1.6314-5.6865 52.957-9.7444 51.505-15.479-1.452-5.735-51.395 16.673-52.666 10.895-1.2711-5.7777 53.465-6.4 52.376-12.215-1.089-5.8148-52.34 13.413-53.246 7.5664-0.90584-5.8462 53.761-3.0303 53.039-8.902-0.72176-5.8717-53.079 10.1-53.616 4.2082-0.53697-5.8915 53.845 0.35136 53.493-5.5541-0.35164-5.9054-53.609 6.7468-53.775 0.83327-0.16597-5.9136 53.717 3.7316 53.737-2.1842 0.0199-5.9159-53.926 3.3674-53.721-2.5449 0.20567-5.9123 53.376 7.0972 53.768 1.1942 0.39127-5.903-54.031-0.0253-53.455-5.913 0.5765-5.8878 52.826 10.435 53.587 4.568 0.76115-5.8667-53.923-3.4179-52.978-9.2578 0.94506-5.8399 52.066 13.731 53.194 7.9237 1.128-5.8074-53.602-6.797-52.292-12.566 1.3099-5.7691 51.101 16.973 52.592 11.248 1.4905-5.7251-53.07-10.149-51.4-15.825 1.6695-5.6754 49.935 20.148 51.782 14.528 1.847-5.6202-52.328-13.462-50.305-19.021 2.0226-5.5594 48.571 23.244 50.767 17.751 2.1962-5.4931-51.379-16.721-49.011-22.142 2.3677-5.4214 47.016 26.248 49.552 20.904 2.5368-5.3444-50.228-19.914-47.524-25.176 2.7034-5.2621 45.275 29.148 48.142 23.974 2.8674-5.1746-48.878-23.028-45.85-28.11 3.0285-5.0819 43.355 31.934 46.542 26.949 3.1866-4.9843-47.336-26.052-43.994-30.934 3.3416-4.8817 41.264 34.593 44.758 29.819 3.4933-4.7744-45.607-28.973-41.965-33.635 3.6416-4.6623 39.011 37.116 42.797 32.57 3.7862-4.5456-43.698-31.779-39.77-36.204 3.9271-4.4244 36.603 39.492 40.668 35.193 4.0642-4.2989-41.616-34.46-37.419-38.63 4.1972-4.1691 34.051 41.712 38.378 37.677 4.3261-4.0352-39.37-37.006-34.919-40.903 4.4507-3.8974 31.365 43.768 35.936 40.012 4.5709-3.7556-36.969-39.405-32.282-43.015 4.6866-3.6102 28.555 45.651 33.353 42.19 4.7977-3.4612-34.421-41.648-29.517-44.957 4.9041-3.3088 25.632 47.354 30.638 44.201 5.0056-3.1531-31.738-43.727-26.636-46.722 5.1022-2.9943 22.608 48.87 27.802 46.037 5.1937-2.8326-28.93-45.634-23.65-48.302 5.2801-2.6681 19.495 50.193 24.856 47.692 5.3613-2.5009-26.008-47.36-20.57-49.692 5.4372-2.3313 16.305 51.318 21.813 49.159 5.5078-2.1593-22.983-48.9-17.41-50.885 5.5729-1.9852 13.05 52.241 18.683 50.432 5.6325-1.8092-19.867-50.246-14.18-51.878 5.6865-1.6314 9.7444 52.957 15.479 51.505 5.735-1.452-16.673-51.395-10.895-52.666 5.7777-1.2711 6.4 53.465 12.215 52.376 5.8148-1.089-13.413-52.34-7.5664-53.246 5.8461-0.90584 3.0303 53.761 8.902 53.039 5.8717-0.72176-10.1-53.079-4.2082-53.616 5.8915-0.53697-0.35136 53.845 5.5541 53.493 5.9054-0.35165-6.7468-53.609-0.83328-53.775 5.9136-0.16597-3.7316 53.717 2.1842 53.737 5.9159 0.0199-3.3674-53.926 2.5449-53.721 5.9123 0.20567-7.0972 53.376-1.1942 53.768 5.903 0.39129 0.0253-54.031 5.913-53.455 5.8878 0.57651-10.435 52.826-4.568 53.587 5.8668 0.76115 3.4179-53.923 9.2578-52.978 5.8399 0.94506-13.731 52.066-7.9237 53.194 5.8074 1.128 6.797-53.602 12.566-52.292 5.7691 1.3099-16.973 51.101-11.248 52.592 5.7251 1.4904 10.149-53.07 15.825-51.4 5.6754 1.6696-20.148 49.935-14.528 51.782 5.6202 1.847 13.462-52.328 19.021-50.305 5.5594 2.0226-23.244 48.571-17.751 50.767 5.4931 2.1962 16.721-51.379 22.142-49.011 5.4214 2.3677-26.248 47.016-20.904 49.552 5.3444 2.5368 19.914-50.228 25.176-47.524 5.2621 2.7034-29.148 45.275-23.974 48.142 5.1746 2.8674 23.028-48.878 28.11-45.85 5.0819 3.0285-31.934 43.355-26.949 46.542 4.9843 3.1867 26.052-47.336 30.934-43.994 4.8817 3.3416-34.593 41.264-29.819 44.758 4.7744 3.4933 28.973-45.607 33.635-41.965 4.6623 3.6416-37.116 39.011-32.57 42.797 4.5456 3.7862 31.779-43.698 36.204-39.77 4.4244 3.9271-39.492 36.603-35.193 40.668 4.2989 4.0642 34.46-41.616 38.63-37.419 4.1691 4.1972-41.712 34.051-37.677 38.377 4.0352 4.3261 37.006-39.37 40.903-34.919 3.8973 4.4507-43.768 31.365-40.012 35.936 3.7556 4.5709 39.405-36.969 43.015-32.282 3.6102 4.6866-45.651 28.555-42.19 33.353 3.4612 4.7977 41.648-34.421 44.957-29.517 3.3088 4.9041-47.354 25.632-44.201 30.638 3.1531 5.0056 43.727-31.738 46.722-26.636 2.9943 5.1022-48.87 22.608-46.037 27.802 2.8326 5.1937 45.634-28.93 48.302-23.65 2.6681 5.2801-50.193 19.495-47.692 24.856 2.5009 5.3613 47.36-26.008 49.692-20.57 2.3313 5.4372-51.318 16.305-49.159 21.813 2.1593 5.5078 48.9-22.983 50.885-17.41 1.9852 5.5729-52.241 13.05-50.432 18.683 1.8092 5.6325 50.246-19.867 51.878-14.18 1.6314 5.6865-52.957 9.7444-51.505 15.479 1.452 5.735 51.395-16.673 52.666-10.895 1.2711 5.7777-53.465 6.4-52.376 12.215 1.089 5.8148 52.34-13.413 53.246-7.5664 0.90583 5.8462-53.761 3.0303-53.039 8.902 0.72175 5.8717 53.079-10.1 53.616-4.2082 0.53697 5.8915-53.845-0.35137-53.493 5.5541 0.35164 5.9054 53.609-6.7469 53.775-0.83327 0.16597 5.9136-53.717-3.7316-53.737 2.1842-0.0199 5.9159 53.926-3.3674 53.721 2.5449-0.20567 5.9123-53.376-7.0972-53.768-1.1942-0.39128 5.903 54.031 0.0253 53.455 5.913-0.5765 5.8878-52.826-10.435-53.587-4.568-0.76116 5.8667 53.923 3.4179 52.978 9.2578-0.94506 5.8399-52.066-13.731-53.194-7.9237-1.128 5.8074 53.602 6.797 52.292 12.566z"/>
  <path id="back-pattern" fill="#b38c4b" d="M 48.945312 21.041016 L 48.945312 21.046875 C 57.109727 28.030639 66.208919 62.495756 75.392578 99.080078 A 4.055 4.055 0 0 1 79.802734 97.808594 C 80.911291 98.178076 81.949561 98.567445 82.949219 98.964844 C 69.925057 65.977517 57.676273 34.174019 57.861328 21.041016 L 48.945312 21.041016 z M 84.958984 21.044922 C 90.797536 38.365227 94.882685 74.791468 99.107422 109.8418 C 100.46862 111.33147 101.45401 112.56371 102.18945 113.22461 C 102.2454 112.06331 102.21524 110.51732 101.76172 108.57812 A 4.055 4.055 0 0 1 107.12695 103.86523 C 98.837361 71.518097 90.32554 38.749186 89.310547 21.044922 L 84.958984 21.044922 z M 67.923828 21.046875 C 74.685955 34.434132 80.888002 67.231949 87.080078 100.8125 C 91.995921 103.28117 95.300022 105.98324 97.626953 108.28711 C 86.40319 73.658332 74.624149 38.095602 73.560547 21.046875 L 67.923828 21.046875 z M 101.23828 21.048828 C 105.3887 39.022027 107.12526 72.510361 108.98633 105.27148 C 113.03226 110.50025 113.78491 114.56854 114.60742 117.44727 C 115.00702 118.84617 115.67191 120.30922 116.19727 120.87305 C 116.72267 121.43688 116.54775 121.65779 118.24805 121.18555 A 4.055 4.055 0 0 1 119.2207 121.04102 C 119.22387 117.92427 119.22936 114.79743 119.24414 111.62891 C 118.83591 109.46483 118.42132 107.28569 118.00781 105.10938 C 116.84342 102.53035 115.83267 99.699707 115.11523 96.689453 C 114.2229 92.945564 113.78531 88.90887 114.17188 84.865234 C 109.42963 59.61825 105.29661 35.834082 104.95898 21.048828 L 101.23828 21.048828 z M 119.24414 111.62891 C 119.86664 114.92897 120.47363 118.19135 121.07227 121.43555 A 4.055 4.055 0 0 1 123.06445 123.51172 C 124.01465 122.62622 124.82229 121.64522 125.23828 120.60352 C 125.90488 118.93422 125.91739 117.42842 124.92578 115.72852 A 4.055 4.055 0 0 1 124.40234 114.16406 A 4.055 4.055 0 0 1 122.37695 112.70898 C 121.30717 111.25053 120.25084 109.5647 119.26562 107.70117 C 119.25836 109.00989 119.25022 110.32538 119.24414 111.62891 z M 117.07812 21.048828 C 118.9594 33.694094 119.38738 52.925034 119.41016 74.011719 A 4.055 4.055 0 0 1 119.95117 73.953125 C 120.54976 69.592387 121.6589 65.409889 123.10352 61.458984 C 121.37885 45.512635 120.24618 31.271133 120.51953 21.048828 L 117.07812 21.048828 z M 132.69922 21.048828 C 133.18326 27.119036 133.25662 34.623083 133.06641 43.039062 A 4.055 4.055 0 0 1 135.5293 41.960938 C 135.42369 33.984711 135.55389 26.852735 136.05664 21.048828 L 132.69922 21.048828 z M 148.23047 21.048828 C 148.47262 32.62052 146.85307 49.412966 144.60938 67.957031 A 4.055 4.055 0 0 1 147.97852 69.615234 C 148.34375 70.115916 148.68559 70.6373 149.01758 71.166016 C 149.21224 51.188765 149.80389 33.085821 151.69141 21.048828 L 148.23047 21.048828 z M 163.80078 21.048828 C 163.39455 35.87749 159.05488 59.864253 154.0957 85.308594 C 154.4952 87.577747 154.76803 89.861445 154.90625 92.099609 C 155.14861 96.024309 154.99718 99.792181 154.43555 103.11328 C 153.87395 106.43448 153.05934 109.32483 151.05664 111.70703 A 4.055 4.055 0 0 1 150.68555 112.08594 A 4.055 4.055 0 0 1 150.125 116.9707 C 149.69956 117.41321 149.2789 117.91042 148.87109 118.42969 C 148.86891 118.92084 148.86774 119.41463 148.86523 119.9043 C 149.53799 119.0739 150.17406 118.19615 150.68359 117.30469 A 4.055 4.055 0 0 1 157.60938 117.12695 C 157.6246 117.11436 157.64099 117.10242 157.65625 117.08984 C 158.01269 115.72026 158.35821 114.37371 158.71875 112.99609 C 161.00475 77.811094 162.93051 40.308828 167.57031 21.048828 L 163.80078 21.048828 z M 158.71875 112.99609 C 158.64358 114.15302 158.56433 115.28046 158.48828 116.43164 C 161.27055 114.28914 164.60319 112.46043 168.74219 111.41602 A 4.055 4.055 0 0 1 168.88086 111.38672 C 173.42892 75.738409 177.8202 38.400701 183.91016 21.048828 L 179.46094 21.048828 C 178.31094 40.297828 167.93975 77.767094 158.71875 112.99609 z M 195.21875 21.048828 C 194.18097 38.374196 181.43598 75.612599 169.62109 111.30273 A 4.055 4.055 0 0 1 170.60352 111.39258 C 172.83801 109.06146 176.05197 106.01606 180.68555 103.47656 C 187.3286 68.733313 193.9686 34.383091 201.07227 21.048828 L 195.21875 21.048828 z M 210.89648 21.048828 C 211.32148 34.183725 198.06332 67.565334 184.28906 101.75391 C 186.80055 100.70749 189.65538 99.845217 192.88672 99.279297 C 202.58449 61.719516 212.17773 26.437692 220.55273 21.048828 L 210.89648 21.048828 z M 223.68945 21.082031 C 224.08193 21.103237 224.46648 21.153465 224.85352 21.195312 C 224.84717 21.189376 224.84233 21.181661 224.83594 21.175781 C 224.45653 21.135231 224.07424 21.103481 223.68945 21.082031 z M 224.85352 21.195312 C 231.25808 27.187534 215.13228 62.373127 197.25977 99.851562 A 4.055 4.055 0 0 1 196.60938 106.69336 C 195.3164 107.33988 193.9235 108.45641 192.53711 109.75977 C 192.19934 110.46589 191.86494 111.16908 191.52734 111.875 A 4.055 4.055 0 0 1 193.2793 116.6875 C 192.01148 120.30924 189.33484 124.49934 185.38477 128.25195 C 184.12723 133.04871 182.87421 137.77865 181.625 142.35352 C 183.54022 141.63941 185.55701 140.99529 187.6582 140.4375 C 190.55151 135.11201 193.53734 129.68054 196.61133 124.15039 C 194.89949 129.38244 193.19873 134.50465 191.50586 139.54297 C 193.94918 139.0544 196.48415 138.69175 199.10352 138.50195 C 201.21651 135.16962 203.3739 131.79275 205.55273 128.39453 C 219.77336 92.692979 234.43582 54.239027 245.10156 39.589844 C 244.30603 36.582414 243.03431 33.801522 241.36523 31.361328 C 241.32284 45.316401 217.7731 86.073936 196.61719 124.13477 C 211.43857 78.834363 226.6804 29.224042 237.05078 26.539062 C 233.6288 23.599345 229.43758 21.690963 224.85352 21.195312 z M 245.10156 39.589844 C 245.11038 39.623194 245.1202 39.656047 245.12891 39.689453 C 245.12001 39.655387 245.11448 39.619954 245.10547 39.585938 C 245.10444 39.587352 245.10259 39.588429 245.10156 39.589844 z M 245.12891 39.689453 C 245.26997 40.229439 245.39995 40.774266 245.50977 41.328125 C 245.40074 40.773994 245.2696 40.229499 245.12891 39.689453 z M 205.55273 128.39453 C 204.21277 131.75879 202.87914 135.08607 201.55078 138.37891 C 204.34687 138.2916 207.22119 138.39462 210.1582 138.74023 C 211.50738 136.8919 212.84214 135.05504 214.21094 133.18945 C 225.15294 110.06045 236.35392 85.789609 246.04492 67.974609 L 246.04492 63.123047 C 236.11922 81.283047 220.34073 105.33153 205.55273 128.39453 z M 214.21094 133.18945 C 213.29681 135.12181 212.39358 137.01286 211.48438 138.92383 C 214.44848 139.34267 217.46941 140.0073 220.52734 140.95703 C 221.20656 140.14213 221.86771 139.3413 222.55078 138.52344 C 230.44078 124.24144 238.46092 109.51837 246.04492 96.234375 L 246.04492 89.439453 C 236.40762 103.15545 225.08494 118.36945 214.21094 133.18945 z M 222.55078 138.52344 C 222.06385 139.40488 221.58533 140.26137 221.09961 141.13867 C 224.06693 142.09365 227.06578 143.3186 230.08008 144.85352 C 230.23543 144.68956 230.3855 144.5293 230.54102 144.36523 C 235.70222 136.26923 240.90892 128.05062 246.04492 120.01562 L 246.04492 110.37891 C 238.43092 119.58871 230.39678 129.12844 222.55078 138.52344 z M 230.54102 144.36523 C 230.42354 144.54951 230.30882 144.72801 230.19141 144.91211 C 232.99539 146.34685 235.8106 148.04663 238.62305 150.04688 C 241.09252 146.66254 243.56281 143.27919 246.04492 139.86523 L 246.04492 128.02734 C 240.87782 133.47204 235.69402 138.92823 230.54102 144.36523 z M 43.464844 21.097656 C 38.839644 21.336126 34.576403 23.024806 31.033203 25.753906 C 41.405203 26.538296 56.636031 77.391234 71.457031 123.74023 C 49.758447 84.078083 25.485736 41.483379 27.429688 29.179688 C 25.354087 31.596187 23.703162 34.451728 22.601562 37.611328 C 33.243563 51.283328 48.092281 91.0775 62.488281 127.9375 C 65.037848 131.97323 67.533994 135.95313 69.986328 139.89062 C 70.825213 139.9071 71.664347 139.92542 72.494141 139.9668 C 71.430341 139.1919 70.205772 138.24879 69.414062 137.72656 A 4.055 4.055 0 0 1 71.763672 130.28906 C 72.375833 130.30678 72.990464 130.35334 73.605469 130.41211 C 72.88973 128.193 72.175343 125.99042 71.457031 123.74414 C 72.719255 126.0513 73.952132 128.32447 75.191406 130.60547 C 77.811889 130.99044 80.437221 131.68507 83.001953 132.53516 A 4.055 4.055 0 0 1 83.453125 131.07422 C 82.527285 127.46863 81.599971 123.81722 80.671875 120.13086 C 60.314875 76.636859 37.269844 29.655656 43.464844 21.097656 z M 62.488281 127.9375 C 47.125281 103.6275 30.714734 78.247859 21.052734 59.755859 L 21.052734 46.839844 C 21.052734 46.587994 21.061829 46.337921 21.068359 46.087891 C 21.061859 46.338291 21.050781 46.587664 21.050781 46.839844 L 21.050781 152.81445 C 23.474365 151.37858 25.957294 150.05174 28.498047 148.85547 C 26.02331 146.52181 23.550132 144.18856 21.052734 141.8418 L 21.052734 137.93359 C 23.644062 141.54801 26.222033 145.13382 28.800781 148.71875 C 31.858668 147.29256 34.986123 146.03784 38.15625 144.95703 C 37.90049 144.55023 37.648649 144.15573 37.392578 143.74805 C 31.961378 137.94065 26.487734 132.10392 21.052734 126.29492 L 21.052734 117.70508 C 26.455734 126.26878 31.950578 135.08405 37.392578 143.74805 C 37.742186 144.12188 38.078992 144.4881 38.427734 144.86133 C 41.508899 143.82121 44.630153 142.95519 47.759766 142.24023 C 46.978291 140.80845 46.204758 139.40068 45.419922 137.95703 C 46.541397 139.31833 47.632003 140.65539 48.742188 142.00781 C 51.654499 141.37454 54.571271 140.89752 57.474609 140.54492 C 56.253021 137.94004 55.029964 135.33706 53.798828 132.68945 C 42.567828 117.15945 30.846734 101.20947 21.052734 86.980469 L 21.052734 64.759766 C 30.925834 82.818766 42.501828 108.38845 53.798828 132.68945 C 55.656945 135.25799 57.48244 137.79685 59.300781 140.33008 C 61.95367 140.06095 64.585495 139.92077 67.1875 139.88672 C 65.630169 135.9641 64.062602 131.98406 62.488281 127.95312 L 62.488281 127.9375 z M 30.988281 25.798828 C 30.694961 26.025708 30.406167 26.25901 30.123047 26.5 C 30.406127 26.25902 30.694911 26.025748 30.988281 25.798828 z M 29.998047 26.607422 C 29.718817 26.848422 29.444521 27.095249 29.175781 27.349609 C 29.443781 27.095609 29.719047 26.848422 29.998047 26.607422 z M 29.115234 27.408203 C 28.825174 27.684663 28.540892 27.968246 28.263672 28.259766 C 28.540922 27.968116 28.825174 27.684743 29.115234 27.408203 z M 239.42578 28.912109 C 239.72094 29.244689 240.00483 29.58772 240.2832 29.9375 C 240.00527 29.58754 239.72041 29.245019 239.42578 28.912109 z M 22.59375 37.623047 C 22.35294 38.313747 22.139985 39.018228 21.953125 39.736328 C 22.140405 39.018518 22.35294 38.313747 22.59375 37.623047 z M 21.916016 39.886719 C 21.738006 40.586979 21.585258 41.298184 21.460938 42.021484 C 21.585767 41.299014 21.737696 40.586319 21.916016 39.886719 z M 21.410156 42.335938 C 21.367566 42.601797 21.326146 42.868069 21.291016 43.136719 C 21.326376 42.867939 21.367316 42.601908 21.410156 42.335938 z M 245.82031 43.267578 C 245.88321 43.759488 245.92965 44.257213 245.9668 44.757812 C 245.9304 44.257112 245.88229 43.759598 245.82031 43.267578 z M 21.228516 43.679688 C 21.204186 43.898688 21.177513 44.117201 21.158203 44.337891 C 21.177633 44.117401 21.204056 43.898468 21.228516 43.679688 z M 21.113281 44.972656 C 21.099641 45.182066 21.083289 45.390763 21.074219 45.601562 C 21.083419 45.390442 21.099531 45.182366 21.113281 44.972656 z M 245.99414 45.152344 C 246.02434 45.656154 246.04182 46.164081 246.04492 46.675781 C 246.04192 46.164031 246.02384 45.656344 245.99414 45.152344 z M 21.052734 93.460938 C 28.887734 107.31994 37.220922 122.87508 45.419922 137.95508 C 37.274623 128.06785 28.910428 118.00914 21.052734 108.35352 L 21.052734 93.460938 z M 130.66992 107.43359 C 130.46172 107.51799 130.03905 108.0016 129.85547 109.2832 C 130.14517 109.111 130.44806 108.91207 130.67188 108.61914 C 131.11316 108.83254 131.37629 107.39559 130.66992 107.43359 z M 79.996094 117.43359 C 80.219288 118.32253 80.442898 119.22129 80.666016 120.10742 C 82.136948 123.25005 83.582624 126.36049 85.013672 129.45117 A 4.055 4.055 0 0 1 86.90625 128.91406 C 88.08355 128.8804 88.803106 128.58972 89.722656 128.37305 C 88.610956 127.44235 87.384147 126.47008 85.935547 125.02148 C 84.266489 123.35276 82.072784 120.91188 79.996094 117.43359 z M 147.10742 121.00781 C 146.75683 121.59549 146.43367 122.17661 146.17383 122.72656 C 146.41408 122.51924 146.66174 122.27108 146.9082 122.03516 C 146.97312 121.69562 147.04215 121.34815 147.10742 121.00781 z M 182.59961 130.64648 C 180.40557 132.35441 177.92275 133.91104 175.14453 135.1875 C 174.87373 135.31192 174.6464 135.4404 174.41797 135.56836 C 174.27351 136.28033 174.13093 137.00288 173.98633 137.70898 A 4.055 4.055 0 0 1 173.74414 139.84375 C 173.64599 140.08638 173.52203 140.30917 173.41211 140.54297 C 172.48753 144.99737 171.5594 149.29465 170.62695 153.42383 C 171.09687 153.48829 171.59537 153.5349 172.12305 153.56445 C 175.29116 146.34401 178.84839 138.61893 182.59961 130.64648 z M 98.53125 138.88477 C 98.925801 139.92942 99.282858 140.91672 99.667969 141.94727 A 4.055 4.055 0 0 1 99.90625 140.98633 C 100.37158 139.80393 100.17607 139.75292 100.19727 139.79492 C 100.21847 139.83696 99.99555 139.46809 98.90625 139.01562 C 98.79715 138.97031 98.653631 138.9287 98.53125 138.88477 z M 246.04492 143.36133 C 243.5997 145.62846 241.17539 147.88222 238.75195 150.13672 C 241.18893 151.8779 243.6234 153.84565 246.04492 156.05469 L 246.04492 143.36133 z M 165.78906 148.75977 C 165.54102 148.93519 165.29354 149.1146 165.04492 149.28516 C 164.57904 149.60481 164.15429 149.80112 163.69727 150.0957 C 163.98992 150.43821 163.82862 150.42656 164.43555 150.91602 C 164.57026 151.02466 164.72304 151.13441 164.87305 151.24414 C 165.17335 150.42361 165.4801 149.59307 165.78906 148.75977 z M 119.08008 151.7832 C 119.06218 151.7956 119.0483 151.80671 119.0293 151.82031 A 4.055 4.055 0 0 1 118.99805 152.0918 C 119.02275 152.01628 119.07708 151.8105 119.08008 151.7832 z M 178.76953 152.55469 C 178.76119 152.58377 178.75443 152.61546 178.74609 152.64453 C 178.76111 152.63795 178.7975 152.62059 178.81055 152.61523 C 178.79931 152.59752 178.78153 152.57337 178.76953 152.55469 z M 215.58398 159.86719 C 213.95441 159.86321 212.45814 159.93984 211.08984 160.08203 C 210.85712 160.10622 210.63931 160.13639 210.41406 160.16406 C 209.66484 161.47232 208.93506 162.71767 208.19531 163.99414 A 4.055 4.055 0 0 1 210.6543 165.70312 C 212.40391 163.78033 214.16358 161.85283 215.99414 159.875 C 215.85925 159.8736 215.71709 159.86751 215.58398 159.86719 z M 47.654297 159.91211 C 45.18503 159.89056 42.691512 159.92867 40.244141 160 C 48.105395 167.5117 55.542761 174.76848 61.910156 181.38281 C 57.41703 174.9429 52.604301 167.61841 47.654297 159.91211 z M 52.457031 160.0293 C 57.88702 165.98505 63.005626 171.72685 67.527344 177.05664 C 66.346321 175.11445 65.137684 173.07857 63.917969 171.00391 C 63.039194 170.25972 62.191903 169.44709 61.396484 168.5293 A 4.055 4.055 0 0 1 60.490234 165.07227 C 59.600859 163.52198 58.71037 161.96875 57.806641 160.36914 C 56.094171 160.22333 54.317009 160.10316 52.457031 160.0293 z M 220.41016 160.0957 C 215.32435 167.90481 210.37997 175.32618 205.77148 181.83789 C 212.07096 175.38179 219.41137 168.30749 227.16797 160.98828 C 224.73654 160.5639 222.49091 160.27485 220.41016 160.0957 z M 37.041016 160.11914 C 33.485814 160.27702 30.128174 160.50705 27.308594 160.79102 C 37.951792 169.67242 48.121378 178.30901 56.582031 186.05859 C 50.505698 178.42122 43.881398 169.52016 37.041016 160.11914 z M 25.9375 160.94922 C 24.353709 161.12918 22.910141 161.3173 21.808594 161.51758 A 4.055 4.055 0 0 1 21.050781 161.57812 L 21.050781 371.26172 A 4.055 4.055 0 0 1 22.347656 371.45898 C 24.055035 372.01926 25.697432 372.52326 27.294922 372.99023 C 35.632741 363.01974 43.719888 353.52951 51.023438 345.55664 C 42.294638 352.50044 31.941734 360.14734 21.052734 368.02734 L 21.052734 365.98828 C 29.970434 356.59498 38.591422 347.6977 46.357422 340.2207 C 38.839122 345.4662 30.203734 351.11522 21.052734 356.94922 L 21.052734 353.28516 C 28.434234 346.49646 35.534063 340.11666 42.039062 334.59766 C 35.687663 338.46016 28.579734 342.54189 21.052734 346.74609 L 21.052734 341.94336 C 27.011234 337.17256 32.732406 332.70201 38.066406 328.72461 C 32.830306 331.47401 27.089734 334.33672 21.052734 337.26562 L 21.052734 331.67578 C 25.722834 328.43648 30.226169 325.38378 34.480469 322.60938 C 30.270669 324.49288 25.779334 326.42112 21.052734 328.38672 L 21.052734 322.24609 C 24.578734 320.14329 28.007697 318.1349 31.279297 316.2832 C 28.037997 317.4953 24.599434 318.72765 21.052734 319.96875 L 21.052734 313.46484 C 23.595834 312.17524 26.084628 310.93448 28.486328 309.76758 C 26.094128 310.49454 23.609934 311.22278 21.052734 311.95508 L 21.052734 305.20117 C 22.770234 304.47225 24.462128 303.76469 26.111328 303.08789 C 24.468728 303.47631 22.772534 303.86195 21.052734 304.24805 L 21.052734 297.34766 C 22.090834 296.98741 23.146303 296.61612 24.158203 296.27344 C 23.149403 296.44595 22.090434 296.6134 21.052734 296.7832 L 21.052734 289.78711 C 21.574364 289.6441 22.118113 289.4886 22.632812 289.34961 C 22.119293 289.40451 21.573734 289.45401 21.052734 289.50781 L 21.052734 282.44922 C 21.216274 282.41572 21.389904 282.37692 21.552734 282.34375 C 21.390204 282.35075 21.216004 282.35628 21.052734 282.36328 L 21.052734 254.03125 C 21.243574 254.04025 21.446879 254.04664 21.636719 254.05664 C 21.446549 254.01654 21.243864 253.97014 21.052734 253.92969 L 21.052734 246.875 C 21.620624 246.9373 22.214337 246.99499 22.773438 247.05859 C 22.212767 246.90314 21.621634 246.72864 21.052734 246.56836 L 21.052734 239.58398 C 22.154134 239.77135 23.27485 239.95629 24.34375 240.14648 C 23.27115 239.77514 22.154734 239.37376 21.052734 238.98242 L 21.052734 232.0918 C 22.855034 232.50815 24.62605 232.92533 26.34375 233.34375 C 24.61855 232.62221 22.852434 231.86914 21.052734 231.08984 L 21.052734 224.35742 C 23.708534 225.13574 26.291031 225.91219 28.769531 226.68359 C 26.279331 225.45309 23.694534 224.13929 21.052734 222.77539 L 21.052734 216.30664 C 24.716534 217.61424 28.263516 218.90899 31.603516 220.18359 C 28.231616 218.24489 24.694734 216.14179 21.052734 213.93359 L 21.052734 207.8418 C 25.913134 209.8984 30.536416 211.91837 34.853516 213.88477 C 30.487616 210.99567 25.855234 207.80332 21.052734 204.41992 L 21.052734 198.9043 C 27.243934 201.9553 33.124516 204.93557 38.478516 207.79297 C 33.020816 203.66607 27.161734 199.02515 21.052734 194.06055 L 21.052734 189.35547 C 28.744534 193.71497 36.010422 197.94776 42.482422 201.94336 C 35.847022 196.23686 28.593734 189.62489 21.052734 182.58789 L 21.052734 179.06836 C 30.387134 185.10186 39.191844 190.93856 46.839844 196.35156 C 38.933744 188.63726 30.140734 179.42684 21.052734 169.71484 L 21.052734 167.88281 C 32.136734 176.01121 42.685828 183.90373 51.548828 191.05273 C 43.698132 182.36533 34.937712 171.89194 25.9375 160.94922 z M 64.195312 161.1543 C 64.372178 161.37852 64.550768 161.6067 64.726562 161.83008 A 4.055 4.055 0 0 1 65.5625 161.9707 C 66.410964 162.21001 67.191293 162.25203 67.888672 162.23047 C 67.871169 162.19517 67.851494 162.15837 67.833984 162.12305 C 67.401439 161.94051 67.055331 161.76767 66.324219 161.58984 C 65.679807 161.43311 64.955094 161.28988 64.195312 161.1543 z M 230.16992 161.56641 C 223.48834 170.60897 217.01494 179.17664 211.07227 186.54492 C 218.93499 179.43948 228.25516 171.58926 238.0625 163.49219 C 235.25956 162.71283 232.63113 162.07515 230.16992 161.56641 z M 203.2793 162.02539 C 200.93427 163.07748 199.40011 164.36814 198.43555 165.59375 C 198.40965 165.64447 198.3833 165.69349 198.35742 165.74414 C 198.31213 165.73994 198.11029 165.71029 198.91211 165.83789 C 199.25929 165.89314 199.70044 165.90838 200.20312 165.87891 C 201.19144 164.62302 202.25269 163.31101 203.2793 162.02539 z M 239.9043 164.01562 C 231.53072 174.03043 223.40723 183.56528 216.07422 191.57031 C 224.80302 184.62651 235.15592 176.97961 246.04492 169.09961 L 246.04492 165.74023 A 4.055 4.055 0 0 1 244.82227 165.53906 C 243.12513 164.98215 241.49285 164.48034 239.9043 164.01562 z M 246.04883 171.17383 C 237.12923 180.56913 228.50528 189.46636 220.73828 196.94336 C 228.25798 191.69666 236.89583 186.04984 246.04883 180.21484 L 246.04883 171.17383 z M 246.04883 183.87695 C 238.66893 190.66415 231.57136 197.04255 225.06836 202.56055 C 231.41826 198.69915 238.52483 194.61686 246.04883 190.41406 L 246.04883 183.87695 z M 246.03711 195.16992 C 240.07871 199.94072 234.35548 204.41127 229.02148 208.38867 C 234.25778 205.63917 240.00011 202.7747 246.03711 199.8457 L 246.03711 195.16992 z M 96.787109 201.41797 C 96.689529 201.50209 96.631203 201.53619 96.533203 201.62109 C 96.134473 201.96653 95.724334 202.33491 95.318359 202.69336 C 95.801163 202.76958 96.26478 202.75705 96.705078 202.64453 A 4.055 4.055 0 0 1 96.787109 201.41797 z M 94.552734 203.36719 C 93.926585 203.92635 93.296975 204.50169 92.664062 205.08203 C 92.900998 205.00291 93.131992 204.90394 93.351562 204.76562 C 93.891885 204.42527 94.28296 203.95027 94.552734 203.36719 z M 246.03711 205.4375 C 241.36741 208.6765 236.86142 211.72971 232.60742 214.50391 C 236.81722 212.62041 241.31051 210.69216 246.03711 208.72656 L 246.03711 205.4375 z M 190.2207 208.60938 A 4.055 4.055 0 0 1 189.9375 208.74805 C 189.78053 208.85909 189.63056 208.95427 189.47656 209.05859 C 189.54055 209.1943 189.62517 209.35951 189.69141 209.49805 C 189.86519 209.20305 190.02424 208.91594 190.2207 208.60938 z M 193.92969 212.20312 C 193.11498 212.72144 192.35814 213.13227 191.62695 213.49023 C 191.8347 213.91592 192.04765 214.35735 192.26562 214.8125 C 192.71226 213.99016 193.2464 213.12829 193.92969 212.20312 z M 246.03516 214.86914 C 242.50946 216.97174 239.07989 218.97858 235.80859 220.83008 C 239.04989 219.61798 242.48846 218.38563 246.03516 217.14453 L 246.03516 214.86914 z M 70.095703 215.72852 C 71.916526 217.92501 73.023887 219.85842 73.251953 221.4668 C 71.634265 221.64193 69.482193 221.03612 66.900391 219.79688 C 68.864791 221.88458 70.094716 223.75176 70.416016 225.34766 C 71.383736 225.18055 72.147688 224.75254 72.679688 224.02539 C 73.207658 223.30385 73.383708 222.45195 73.255859 221.48828 C 74.231999 221.38221 75.021156 221.0047 75.597656 220.3125 C 75.743061 220.13793 75.866739 219.95165 75.96875 219.75781 A 4.055 4.055 0 0 1 72.693359 216.97266 C 71.877748 216.64236 71.023559 216.24801 70.095703 215.72852 z M 70.416016 225.34766 C 68.811616 225.6247 66.623797 225.15231 63.966797 224.07617 C 66.059197 226.03677 67.406725 227.82368 67.828125 229.39648 C 68.782765 229.16881 69.518806 228.69422 70.003906 227.93555 C 70.488716 227.1772 70.609606 226.30916 70.416016 225.34766 z M 67.828125 229.39648 C 66.244425 229.77418 64.0321 229.44028 61.3125 228.5332 C 63.5232 230.358 64.978647 232.05671 65.498047 233.59961 C 66.436597 233.31245 67.141625 232.79364 67.578125 232.00586 C 68.014585 231.21821 68.082115 230.34448 67.828125 229.39648 z M 65.498047 233.59961 C 63.941247 234.07591 61.712306 233.88291 58.941406 233.14844 C 61.262206 234.83094 62.8224 236.43411 63.4375 237.94141 C 64.35561 237.59584 65.026109 237.03206 65.412109 236.21875 C 65.798309 235.40505 65.811297 234.52991 65.498047 233.59961 z M 63.4375 237.94141 C 61.9138 238.51488 59.677234 238.46144 56.865234 237.90234 C 59.287234 239.43584 60.943744 240.9386 61.652344 242.4043 C 62.547104 242.00177 63.181325 241.3985 63.515625 240.5625 C 63.849955 239.72637 63.80829 238.85001 63.4375 237.94141 z M 61.652344 242.4043 C 60.167644 243.07222 57.933097 243.16065 55.091797 242.7793 C 57.604897 244.1574 59.353044 245.5526 60.152344 246.9707 C 61.019994 246.51279 61.615484 245.86897 61.896484 245.01367 C 62.177654 244.1581 62.079574 243.288 61.652344 242.4043 z M 60.152344 246.9707 C 58.713044 247.73026 56.489159 247.95766 53.630859 247.75586 C 56.224959 248.97346 58.055206 250.25795 58.941406 251.62305 C 59.778916 251.11152 60.331694 250.43195 60.558594 249.56055 C 60.785524 248.68887 60.634404 247.8259 60.152344 246.9707 z M 58.941406 251.62305 C 57.552106 252.47162 55.345116 252.83871 52.478516 252.81641 C 55.145616 253.86911 57.054891 255.0345 58.025391 256.3418 C 58.829271 255.77866 59.338066 255.06574 59.509766 254.18164 C 59.681436 253.29782 59.475686 252.44595 58.941406 251.62305 z M 58.025391 256.3418 C 56.691591 257.27612 54.509984 257.77795 51.646484 257.93555 C 54.375584 258.81882 56.35515 259.86332 57.40625 261.10742 C 58.17316 260.49493 58.636053 259.75052 58.751953 258.85742 C 58.867763 257.96472 58.610091 257.1294 58.025391 256.3418 z M 57.40625 261.10742 C 56.13445 262.12322 53.990431 262.76241 51.144531 263.09961 C 53.921531 263.80949 55.960991 264.72764 57.087891 265.90234 C 57.814781 265.24292 58.231416 264.47272 58.291016 263.57422 C 58.350566 262.67586 58.03945 261.85692 57.40625 261.10742 z M 57.087891 265.90234 C 55.882291 266.99604 53.784144 267.76986 50.964844 268.28516 C 53.780444 268.81933 55.874166 269.60728 57.072266 270.70898 C 57.756316 270.00522 58.123953 269.20919 58.126953 268.30859 C 58.129953 267.40788 57.767511 266.61074 57.087891 265.90234 z M 57.072266 270.70898 C 55.937666 271.87618 53.890875 272.7794 51.109375 273.4707 C 53.953375 273.82698 56.092322 274.48351 57.357422 275.50781 C 57.996552 274.7622 58.313366 273.94432 58.259766 273.04492 C 58.206236 272.14598 57.794716 271.37328 57.072266 270.70898 z M 57.357422 275.50781 C 56.298422 276.74331 54.313131 277.77437 51.582031 278.63867 C 54.442131 278.81581 56.618712 279.33445 57.945312 280.27734 C 58.535382 279.4936 58.799283 278.65727 58.689453 277.76367 C 58.579573 276.86978 58.120252 276.12551 57.357422 275.50781 z M 57.945312 280.27734 C 56.966383 281.57754 55.049453 282.73113 52.376953 283.76562 C 55.242453 283.76263 57.444825 284.14442 58.828125 285.00195 C 59.368655 284.18217 59.579912 283.33277 59.414062 282.44727 C 59.248312 281.56221 58.745233 280.84584 57.945312 280.27734 z M 58.828125 285.00195 C 57.931705 286.36145 56.090528 287.63358 53.486328 288.83398 C 56.349428 288.6505 58.574466 288.89019 60.009766 289.66016 C 60.496796 288.80872 60.654524 287.94682 60.433594 287.07422 C 60.212554 286.20117 59.662375 285.51915 58.828125 285.00195 z M 60.009766 289.66016 C 59.201306 291.07336 57.443122 292.45851 54.919922 293.82031 C 57.763022 293.45807 59.998216 293.55904 61.478516 294.23633 C 61.911346 293.35584 62.015564 292.48611 61.740234 291.62891 C 61.464934 290.77185 60.874186 290.12396 60.009766 289.66016 z M 61.478516 294.23633 C 60.760516 295.69693 59.095362 297.19023 56.664062 298.70703 C 59.477263 298.16769 61.713122 298.12809 63.232422 298.71094 C 63.609182 297.80499 63.658708 296.93 63.330078 296.0918 C 63.001268 295.2531 62.371426 294.64483 61.478516 294.23633 z M 63.232422 298.71094 C 62.607422 300.21394 61.038931 301.80771 58.707031 303.47461 C 61.482631 302.75894 63.712325 302.57953 65.265625 303.06641 C 65.584305 302.13897 65.577736 301.26287 65.197266 300.44727 C 64.816426 299.63084 64.149222 299.06254 63.232422 298.71094 z M 65.265625 303.06641 C 64.736455 304.60621 63.270475 306.29487 61.046875 308.10547 C 63.771875 307.21701 65.985606 306.89887 67.566406 307.28711 C 67.827066 306.34053 67.765294 305.46658 67.333984 304.67578 C 66.902854 303.88529 66.202025 303.35991 65.265625 303.06641 z M 67.566406 307.28711 C 67.134246 308.85651 65.776175 310.63448 63.671875 312.58008 C 66.334975 311.52248 68.524953 311.06582 70.126953 311.35352 C 70.327593 310.39253 70.212502 309.52577 69.732422 308.76367 C 69.252462 308.00173 68.519506 307.52121 67.566406 307.28711 z M 70.126953 311.35352 C 69.794233 312.94702 68.550566 314.80676 66.572266 316.88086 C 69.164766 315.65746 71.322153 315.06525 72.939453 315.25195 C 73.079503 314.28004 72.909903 313.42211 72.382812 312.69141 C 71.855703 311.96075 71.093553 311.52712 70.126953 311.35352 z M 72.939453 315.25195 C 72.707333 316.86265 71.585187 318.79703 69.742188 320.99023 C 71.288628 320.1381 72.683993 319.53645 73.908203 319.21875 A 4.055 4.055 0 0 1 75.123047 316.29492 C 74.565452 315.70046 73.8368 315.35554 72.939453 315.25195 z M 197.3457 216.10938 C 195.83249 216.94327 194.46702 217.53459 193.26172 217.85742 A 4.055 4.055 0 0 1 191.95312 220.79297 C 192.51176 221.39362 193.2445 221.74134 194.14648 221.8457 C 194.3792 220.2352 195.5031 218.30197 197.3457 216.10938 z M 200.51367 220.21875 C 197.92057 221.44245 195.76388 222.03476 194.14648 221.84766 C 194.00694 222.81875 194.17639 223.67615 194.70312 224.40625 C 195.23023 225.13691 195.99238 225.57054 196.95898 225.74414 C 197.29225 224.15104 198.53607 222.29215 200.51367 220.21875 z M 246.03516 223.64844 C 243.49276 224.93774 241.00657 226.1791 238.60547 227.3457 C 240.99657 226.6191 243.47926 225.8901 246.03516 225.1582 L 246.03516 223.64844 z M 203.41406 224.51953 C 200.75086 225.57713 198.56098 226.03379 196.95898 225.74609 C 196.7589 226.70629 196.87379 227.57238 197.35352 228.33398 C 197.83348 229.09592 198.56653 229.57645 199.51953 229.81055 C 199.95221 228.24165 201.31056 226.46443 203.41406 224.51953 z M 206.04102 228.99414 C 203.31572 229.8828 201.10053 230.20084 199.51953 229.8125 C 199.25948 230.75834 199.32093 231.63157 199.75195 232.42188 C 200.18307 233.21237 200.88391 233.73775 201.82031 234.03125 C 202.35004 232.49165 203.81762 230.80444 206.04102 228.99414 z M 246.03516 231.91016 C 244.31746 232.63918 242.62596 233.34859 240.97656 234.02539 C 242.61916 233.63697 244.31536 233.25133 246.03516 232.86523 L 246.03516 231.91016 z M 208.37891 233.625 C 205.60331 234.34066 203.37361 234.52008 201.82031 234.0332 C 201.50226 234.95995 201.5084 235.83529 201.88867 236.65039 C 202.2695 237.46682 202.93672 238.03512 203.85352 238.38672 C 204.47896 236.88412 206.04791 235.2912 208.37891 233.625 z M 203.85352 238.38867 C 203.47745 239.29398 203.4275 240.16816 203.75586 241.00586 C 204.08469 241.84458 204.71451 242.45273 205.60742 242.86133 C 206.32581 241.40123 207.99147 239.90898 210.42188 238.39258 C 207.60868 238.93192 205.37282 238.97152 203.85352 238.38867 z M 246.03711 239.76367 C 244.99881 240.12402 243.94374 240.49704 242.93164 240.83984 C 243.94044 240.66734 244.99941 240.49989 246.03711 240.33008 L 246.03711 239.76367 z M 205.60742 242.86328 C 205.17528 243.74319 205.07053 244.61205 205.3457 245.46875 C 205.62099 246.32581 206.21175 246.9737 207.07617 247.4375 C 207.88497 246.0247 209.64362 244.6406 212.16602 243.2793 C 209.32292 243.64154 207.08772 243.54057 205.60742 242.86328 z M 246.03711 247.32617 C 245.51543 247.46921 244.97173 247.62468 244.45703 247.76367 C 244.97056 247.70877 245.51611 247.6592 246.03711 247.60547 L 246.03711 247.32617 z M 207.07812 247.43945 C 206.5917 248.29037 206.4335 249.15134 206.6543 250.02344 C 206.87534 250.89649 207.42551 251.5785 208.25977 252.0957 C 209.15648 250.7367 210.99826 249.46572 213.60156 248.26562 C 210.73846 248.44911 208.51342 248.20942 207.07812 247.43945 z M 208.25781 252.09766 C 207.71799 252.91698 207.50614 253.76549 207.67188 254.65039 C 207.83766 255.53566 208.34238 256.25181 209.14258 256.82031 C 210.12199 255.52091 212.03788 254.36788 214.70898 253.33398 C 211.84348 253.33698 209.64121 252.95519 208.25781 252.09766 z M 246.03516 254.66406 C 245.87156 254.69766 245.69799 254.73636 245.53516 254.76953 C 245.6977 254.76253 245.8718 254.7569 246.03516 254.75 L 246.03516 254.66406 z M 209.14258 256.82227 C 208.55274 257.60589 208.28666 258.44068 208.39648 259.33398 C 208.50636 260.22787 208.96569 260.97214 209.72852 261.58984 C 210.78782 260.35484 212.77351 259.32494 215.50391 258.46094 C 212.64421 258.28383 210.46928 257.7649 209.14258 256.82227 z M 209.73047 261.5918 C 209.09206 262.33708 208.77456 263.15393 208.82812 264.05273 C 208.88163 264.95143 209.29354 265.72457 210.01562 266.38867 L 210.01562 266.39062 C 211.15013 265.22343 213.19702 264.32021 215.97852 263.62891 C 213.13452 263.27263 210.99557 262.6161 209.73047 261.5918 z M 210.01562 266.39062 C 209.33226 267.09411 208.96394 267.88906 208.96094 268.78906 C 208.95794 269.68977 209.32037 270.48691 210 271.19531 L 210 271.19727 C 211.2056 270.10357 213.30375 269.32975 216.12305 268.81445 C 213.30695 268.28019 211.21362 267.49262 210.01562 266.39062 z M 210.01172 271.2207 C 209.28551 271.8799 208.86809 272.64878 208.80859 273.54688 C 208.74899 274.44524 209.06016 275.26417 209.69336 276.01367 C 208.92645 276.62616 208.46356 277.37057 208.34766 278.26367 C 208.23178 279.15685 208.48886 279.99325 209.07422 280.78125 C 208.27122 281.34422 207.76144 282.05595 207.58984 282.93945 C 207.41816 283.82327 207.62394 284.67515 208.1582 285.49805 C 207.3207 286.00957 206.76792 286.68905 206.54102 287.56055 C 206.31409 288.43222 206.46522 289.29519 206.94727 290.15039 C 206.07961 290.6083 205.48412 291.25212 205.20312 292.10742 C 204.92195 292.96299 205.02003 293.8331 205.44727 294.7168 C 204.55251 295.11934 203.91828 295.72259 203.58398 296.55859 C 203.24966 297.39472 203.29134 298.27109 203.66211 299.17969 C 202.744 299.52526 202.0735 300.08913 201.6875 300.90234 C 201.30131 301.71604 201.28828 302.59118 201.60156 303.52148 C 200.66301 303.80864 199.95798 304.32745 199.52148 305.11523 C 199.08498 305.90294 199.01937 306.77661 199.27344 307.72461 C 198.31789 307.9521 197.5811 308.42639 197.0957 309.18555 C 196.6109 309.9439 196.48999 310.81194 196.68359 311.77344 C 195.71637 311.94069 194.95182 312.36882 194.41992 313.0957 C 193.8879 313.82277 193.71217 314.6815 193.8457 315.6543 C 192.86957 315.76038 192.08051 316.13789 191.50391 316.83008 C 191.3952 316.96059 191.31091 317.10282 191.22656 317.24414 A 4.055 4.055 0 0 1 194.5332 320.2207 C 195.31288 320.54369 196.12532 320.92301 197.00586 321.41602 C 195.17716 319.21002 194.0671 317.26875 193.8457 315.65625 C 195.4636 315.48045 197.61642 316.08645 200.19922 317.32617 C 198.23482 315.23847 197.00489 313.37129 196.68359 311.77539 C 198.28749 311.49806 200.47446 311.97128 203.13086 313.04688 C 201.03916 311.08677 199.69484 309.29906 199.27344 307.72656 C 200.85634 307.34969 203.06806 307.68196 205.78516 308.58789 C 203.57566 306.76369 202.12086 305.06584 201.60156 303.52344 C 203.15836 303.04714 205.3873 303.24014 208.1582 303.97461 C 205.8374 302.29211 204.27721 300.68894 203.66211 299.18164 C 205.18581 298.60817 207.42237 298.6616 210.23438 299.2207 C 207.81238 297.6872 206.15587 296.18445 205.44727 294.71875 C 206.93187 294.05089 209.16681 293.96251 212.00781 294.34375 C 209.49471 292.96565 207.74667 291.57044 206.94727 290.15234 C 208.38687 289.39258 210.6116 289.16515 213.4707 289.36719 C 210.8761 288.14939 209.0446 286.8653 208.1582 285.5 C 209.5475 284.65143 211.75449 284.28434 214.62109 284.30664 C 211.95489 283.25424 210.04502 282.09 209.07422 280.7832 C 210.40782 279.8482 212.58852 279.3452 215.45312 279.1875 C 212.72403 278.30423 210.74446 277.25972 209.69336 276.01562 C 210.96516 274.99982 213.10918 274.36064 215.95508 274.02344 C 213.17808 273.31356 211.13862 272.3954 210.01172 271.2207 z M 245.45117 283.05664 C 245.64133 283.09664 245.84397 283.14294 246.03516 283.18359 L 246.03516 283.08203 C 245.84424 283.07303 245.64099 283.06664 245.45117 283.05664 z M 244.31445 290.05469 C 244.87511 290.21014 245.46626 290.38461 246.03516 290.54492 L 246.03516 290.23828 C 245.46721 290.17598 244.87355 290.11832 244.31445 290.05469 z M 242.74414 296.9668 C 243.81694 297.33821 244.93296 297.74143 246.03516 298.13281 L 246.03516 297.53125 C 244.93356 297.34386 243.81314 297.15701 242.74414 296.9668 z M 240.74609 303.76953 C 242.47119 304.49102 244.23546 305.24424 246.03516 306.02344 L 246.03516 305.02148 C 244.23306 304.60517 242.46369 304.18791 240.74609 303.76953 z M 238.31836 310.42969 C 240.80846 311.66019 243.39346 312.97399 246.03516 314.33789 L 246.03516 312.75586 C 243.37936 311.97756 240.79676 311.20109 238.31836 310.42969 z M 235.48438 316.92969 C 238.85628 318.86839 242.39316 320.97149 246.03516 323.17969 L 246.03516 320.80664 C 242.37136 319.49904 238.82438 318.20429 235.48438 316.92969 z M 74.894531 322.16016 C 74.438876 323.01802 73.875635 323.92298 73.158203 324.89453 C 74.013083 324.35075 74.80557 323.92341 75.568359 323.55664 C 75.349413 323.10824 75.124893 322.64138 74.894531 322.16016 z M 232.23828 323.23047 C 236.60318 326.11897 241.23396 329.30881 246.03516 332.69141 L 246.03516 329.27148 C 241.17616 327.21548 236.55418 325.19627 232.23828 323.23047 z M 77.46875 327.47656 C 77.289324 327.78516 77.116717 328.09066 76.912109 328.41211 A 4.055 4.055 0 0 1 77.414062 328.16992 C 77.51388 328.10102 77.612359 328.03681 77.710938 327.9707 C 77.639137 327.81826 77.543404 327.63259 77.46875 327.47656 z M 228.60938 329.32031 C 234.06707 333.44721 239.92616 338.09009 246.03516 343.05469 L 246.03516 338.20703 C 239.84436 335.15613 233.96337 332.17761 228.60938 329.32031 z M 174.29688 332.10742 C 174.10952 332.18015 173.92614 332.26599 173.75 332.37695 C 173.26097 332.685 172.90121 333.10939 172.63477 333.61719 C 173.18637 333.12448 173.73969 332.61686 174.29688 332.10742 z M 170.91016 334.40039 C 170.76099 334.41298 170.61721 334.45126 170.47266 334.48438 A 4.055 4.055 0 0 1 170.38281 335.58008 C 170.48039 335.49596 170.53872 335.46185 170.63672 335.37695 C 170.98726 335.07326 171.34883 334.74744 171.70508 334.43359 C 171.4344 334.39617 171.16751 334.37867 170.91016 334.40039 z M 224.60547 335.17188 C 231.24087 340.87838 238.49611 347.49034 246.03711 354.52734 L 246.03711 347.75781 C 238.34571 343.39851 231.07747 339.16727 224.60547 335.17188 z M 220.24805 340.76367 C 228.15415 348.47797 236.94716 357.68839 246.03516 367.40039 L 246.03516 358.04688 C 236.70076 352.01347 227.89605 346.17567 220.24805 340.76367 z M 215.55469 346.09766 C 223.37457 354.75096 232.09766 365.17448 241.06055 376.07031 C 242.71821 375.88483 244.21935 375.6881 245.36133 375.48047 A 4.055 4.055 0 0 1 246.05078 375.41797 L 246.05078 369.26758 C 234.96578 361.13918 224.41769 353.24666 215.55469 346.09766 z M 56.025391 350.58203 C 48.198253 357.65532 38.928271 365.46535 29.169922 373.52344 C 31.957443 374.29709 34.574452 374.92986 37.023438 375.43555 C 43.671544 366.44018 50.110661 357.91567 56.025391 350.58203 z M 210.52539 351.09375 C 216.56935 358.69099 223.15756 367.54138 229.95898 376.88672 C 233.48539 376.73299 236.82078 376.5073 239.63867 376.22852 C 229.05434 367.39444 218.94354 358.80433 210.52539 351.09375 z M 61.328125 355.28906 C 55.062902 361.71006 47.764204 368.74302 40.054688 376.01953 C 42.470964 376.43985 44.704129 376.72455 46.773438 376.90234 C 51.82944 369.14111 56.745037 361.76489 61.328125 355.28906 z M 205.19336 355.76562 C 209.65685 362.16307 214.43626 369.43421 219.35156 377.08398 C 221.8014 377.10767 224.27609 377.07231 226.70898 377.00391 C 218.90448 369.54498 211.51965 362.33728 205.19336 355.76562 z M 199.57617 360.09375 C 200.66351 361.88187 201.77421 363.74932 202.89453 365.65039 C 203.9172 366.47651 204.89244 367.41391 205.80664 368.46875 A 4.055 4.055 0 0 1 206.66211 372.16016 C 207.50431 373.62865 208.34609 375.10053 209.20117 376.61328 C 210.89284 376.76009 212.65391 376.88087 214.49414 376.95703 C 209.11998 371.06004 204.05643 365.37467 199.57617 360.09375 z M 67.722656 371.10742 C 67.502897 371.0975 67.257451 371.10284 66.998047 371.11719 C 66.014372 372.36788 64.961336 373.67277 63.939453 374.95312 C 66.248092 373.9092 67.762096 372.63288 68.720703 371.41992 C 68.74927 371.364 68.778092 371.30974 68.806641 371.25391 C 68.853502 371.2584 69.051395 371.28645 68.257812 371.16016 C 68.097175 371.13459 67.918696 371.11627 67.722656 371.10742 z M 56.533203 371.32227 C 54.792114 373.23635 53.044399 375.15608 51.222656 377.125 C 52.991507 377.1418 54.612377 377.06853 56.080078 376.91602 C 56.313126 376.8918 56.532262 376.8617 56.757812 376.83398 C 57.506669 375.52685 58.237221 374.27914 58.976562 373.00391 A 4.055 4.055 0 0 1 56.533203 371.32227 z M 199.14258 374.76758 C 199.14828 374.77908 199.15445 374.79123 199.16016 374.80273 C 199.69719 375.01504 200.01661 375.20607 200.84766 375.4082 C 201.431 375.55009 202.08118 375.68012 202.75977 375.80469 C 202.58638 375.58473 202.40867 375.36171 202.23633 375.14258 A 4.055 4.055 0 0 1 201.64062 375.02734 C 200.72818 374.77004 199.88169 374.73172 199.14258 374.76758 z M 21.050781 380.87891 L 21.050781 490.31055 C 21.050781 490.8814 21.074332 491.44641 21.107422 492.00781 C 21.073882 491.44718 21.052734 490.8829 21.052734 490.3125 L 21.052734 474.00391 C 30.977067 455.84641 46.752827 431.80328 61.539062 408.74219 C 47.318986 444.44283 32.656649 482.89127 21.992188 497.53516 C 22.788898 500.54166 24.063622 503.32037 25.732422 505.75977 C 25.774812 491.80277 49.330281 451.03766 70.488281 412.97266 C 72.208458 407.71513 73.918465 402.56935 75.619141 397.50781 C 73.184265 397.99143 70.658042 398.34846 68.048828 398.53516 C 65.920111 401.89275 63.7466 405.29207 61.550781 408.7168 C 62.900767 405.32743 64.245821 401.97483 65.583984 398.6582 C 62.799353 398.74171 59.93595 398.63521 57.011719 398.28906 C 55.639257 400.16951 54.279575 402.03912 52.886719 403.9375 C 41.944719 427.0665 30.743734 451.33734 21.052734 469.15234 L 21.052734 447.6875 C 30.690034 433.9715 42.012719 418.7575 52.886719 403.9375 C 53.81706 401.97084 54.736886 400.04597 55.662109 398.10156 C 52.7087 397.68087 49.700919 397.01645 46.654297 396.06836 C 45.947076 396.91694 45.258296 397.7517 44.546875 398.60352 C 36.656675 412.88652 28.637734 427.61053 21.052734 440.89453 L 21.052734 426.74805 C 28.666734 417.53825 36.700875 407.99852 44.546875 398.60352 C 45.054156 397.68523 45.552634 396.79268 46.058594 395.87891 C 43.103223 394.9246 40.115478 393.70173 37.113281 392.17188 C 36.925688 392.36987 36.744474 392.56356 36.556641 392.76172 C 31.395441 400.85772 26.188734 409.07633 21.052734 417.11133 L 21.052734 409.09961 C 26.219934 403.65491 31.403641 398.19872 36.556641 392.76172 C 36.698614 392.53902 36.838589 392.32401 36.980469 392.10156 C 34.179293 390.66587 31.366552 388.96513 28.556641 386.96484 C 26.059465 390.38714 23.562711 393.80944 21.052734 397.26172 L 21.052734 393.76562 C 23.533241 391.46568 25.990869 389.17762 28.449219 386.89062 C 25.976791 385.12388 23.507518 383.12745 21.050781 380.87891 z M 70.488281 412.97266 C 55.665281 458.27666 40.419828 507.89803 30.048828 510.58203 C 33.476328 513.52623 37.670072 515.45421 42.263672 515.94531 C 35.801469 509.99891 51.982286 474.7132 69.894531 437.1543 A 4.055 4.055 0 0 1 70.585938 430.33984 C 71.850523 429.70752 73.208307 428.6215 74.564453 427.35547 C 74.919214 426.61383 75.272394 425.87617 75.626953 425.13477 A 4.055 4.055 0 0 1 73.916016 420.3457 C 75.173494 416.75349 77.813852 412.60215 81.710938 408.87305 C 82.973572 404.05681 84.234047 399.30718 85.488281 394.71484 C 83.57988 395.42319 81.572615 396.06418 79.480469 396.61719 C 76.575746 401.96471 73.575374 407.41873 70.488281 412.97266 z M 95.011719 383.47266 C 91.837164 390.71087 88.270036 398.45702 84.507812 406.45312 C 86.722692 404.71865 89.234183 403.1389 92.048828 401.8457 C 92.28696 401.73629 92.484244 401.624 92.6875 401.51172 C 92.851667 400.70296 93.015329 399.88121 93.179688 399.08008 A 4.055 4.055 0 0 1 93.453125 397.19531 C 93.508769 397.05777 93.581152 396.93351 93.640625 396.79883 C 94.587343 392.23394 95.537314 387.83004 96.492188 383.60547 C 96.026299 383.54365 95.533853 383.50034 95.011719 383.47266 z M 246.05078 384.22461 C 243.60148 385.67275 241.08913 387.00722 238.52148 388.21094 C 241.02422 390.57104 243.52509 392.93135 246.05078 395.30469 L 246.05078 384.22461 z M 148.17383 384.91406 C 148.14433 384.95661 148.14811 384.88696 148.09961 385.14062 C 148.08861 385.19612 148.0998 385.17306 148.0918 385.22266 C 148.1097 385.21026 148.12358 385.19915 148.14258 385.18555 A 4.055 4.055 0 0 1 148.17383 384.91406 z M 102.27148 385.75586 C 101.95895 386.61009 101.64033 387.47367 101.31836 388.3418 C 101.59603 388.14459 101.87386 387.94496 102.15234 387.75391 C 102.61822 387.43426 103.04298 387.23794 103.5 386.94336 C 103.20735 386.60085 103.36865 386.61251 102.76172 386.12305 C 102.61113 386.0016 102.44129 385.87852 102.27148 385.75586 z M 238.23633 388.33789 C 235.17771 389.75906 232.05215 391.01394 228.88281 392.08984 C 229.16038 392.53129 229.43301 392.95986 229.71094 393.40234 C 235.14214 399.20974 240.61578 405.04647 246.05078 410.85547 L 246.05078 399.21484 C 243.43713 395.56922 240.83728 391.95385 238.23633 388.33789 z M 229.71094 393.40234 C 229.3302 392.99523 228.96174 392.59781 228.58203 392.19141 C 225.50876 393.22329 222.39767 394.08464 219.27734 394.79297 C 220.08021 396.26376 220.87716 397.70999 221.68359 399.19336 C 229.82869 409.08026 238.19378 419.13892 246.05078 428.79492 L 246.05078 419.44336 C 240.64808 410.88006 235.15194 402.06534 229.71094 393.40234 z M 221.68359 399.19336 C 220.52954 397.79258 219.40763 396.41671 218.26562 395.02539 C 215.36441 395.65111 212.45997 396.12581 209.56836 396.47266 C 210.81173 399.1239 212.05528 401.77659 213.30859 404.47266 C 224.53959 419.99766 236.25678 435.95469 246.05078 450.17969 L 246.05078 443.68555 C 238.21608 429.82755 229.88259 414.27236 221.68359 399.19336 z M 213.30859 404.47266 C 211.41463 401.85468 209.55351 399.26671 207.70117 396.68555 C 205.06223 396.94802 202.44362 397.0839 199.85547 397.11328 C 201.43348 401.08736 203.0197 405.1194 204.61523 409.20508 C 219.97723 433.52208 236.38778 458.89372 246.05078 477.38672 L 246.05078 472.39258 C 236.17858 454.33458 224.60459 428.77066 213.30859 404.47266 z M 204.61523 409.20508 C 202.03325 405.11803 199.50718 401.08737 197.02539 397.10156 C 196.23993 397.08441 195.45326 397.0703 194.67578 397.03125 C 195.73958 397.80615 196.96415 398.74925 197.75586 399.27148 A 4.055 4.055 0 0 1 195.40625 406.70898 C 194.75505 406.69013 194.10137 406.63939 193.44727 406.57422 C 194.17983 408.84492 194.91121 411.09911 195.64648 413.39844 C 217.34548 453.06044 241.61583 495.65494 239.67383 507.96094 C 241.74913 505.54494 243.40035 502.69015 244.50195 499.53125 C 233.85995 485.85925 219.01123 446.06508 204.61523 409.20508 z M 195.64648 413.39844 C 194.35314 411.0344 193.08942 408.70555 191.82031 406.36914 C 189.25165 405.97887 186.68195 405.29369 184.16992 404.45898 A 4.055 4.055 0 0 1 183.64844 406.05664 C 184.57525 409.66594 185.50257 413.32148 186.43164 417.01172 C 206.78664 460.49972 229.83062 507.47606 223.64062 516.03906 C 228.26413 515.80027 232.52616 514.11247 236.06836 511.38477 C 225.69636 510.59432 210.46648 459.74444 195.64648 413.39844 z M 186.43164 417.01172 C 184.95022 413.84668 183.49166 410.7138 182.05078 407.60156 A 4.055 4.055 0 0 1 180.26367 408.08398 C 179.08637 408.11764 178.36682 408.40833 177.44727 408.625 C 178.55897 409.5557 179.78578 410.52796 181.23438 411.97656 C 182.85657 413.59843 184.97371 415.95368 186.99805 419.27734 C 186.80896 418.52454 186.62067 417.76247 186.43164 417.01172 z M 167.48438 395.36914 A 4.055 4.055 0 0 1 167.29688 396.01953 C 166.83065 397.20473 167.02541 397.2596 167.00391 397.2168 C 166.98241 397.17396 167.20106 397.53881 168.28516 397.99023 C 168.34196 398.01389 168.42003 398.0353 168.48047 398.05859 C 168.13381 397.1397 167.82369 396.27712 167.48438 395.36914 z M 172.98438 399.03516 C 172.98975 399.06224 172.99658 399.09009 173.00195 399.11719 C 173.0474 399.12447 173.08701 399.13339 173.13281 399.14062 C 173.082 399.10592 173.03509 399.06992 172.98438 399.03516 z M 144.11328 413.50586 C 143.16688 414.39026 142.3605 415.3674 141.94336 416.4043 C 141.27096 418.0757 141.25539 419.57453 142.24414 421.26953 A 4.055 4.055 0 0 1 142.76758 422.83398 A 4.055 4.055 0 0 1 144.79297 424.28906 C 145.83758 425.71321 146.86672 427.35854 147.83203 429.16992 C 147.83877 427.94475 147.84782 426.71274 147.85352 425.49219 C 147.2201 422.13435 146.60466 418.8135 145.99609 415.51367 A 4.055 4.055 0 0 1 144.11328 413.50586 z M 147.85352 425.49219 C 148.22984 427.48712 148.6132 429.49632 148.99414 431.50195 C 150.23226 434.18067 151.3019 437.15195 152.05469 440.31055 C 152.9713 444.1563 153.40868 448.30904 152.96484 452.46289 C 157.69056 477.63191 161.80198 501.32788 162.13867 516.07227 L 165.85938 516.07227 C 161.69863 498.05463 159.96389 464.44617 158.09766 431.60742 C 154.13391 426.43728 153.37861 422.40713 152.5625 419.55078 C 152.1629 418.15188 151.49802 416.68883 150.97266 416.125 C 150.44726 415.56117 150.62217 415.34026 148.92188 415.8125 A 4.055 4.055 0 0 1 147.87695 415.95508 C 147.87395 419.11282 147.86849 422.28106 147.85352 425.49219 z M 121.02148 414.30664 C 120.74986 414.54104 120.46854 414.81732 120.18945 415.08789 C 120.11902 415.45634 120.04545 415.83374 119.97461 416.20312 C 120.36877 415.55522 120.7355 414.91192 121.02148 414.30664 z M 118.23242 417.25195 C 117.59701 418.04716 116.99648 418.88039 116.51172 419.72852 A 4.055 4.055 0 0 1 109.58789 419.91211 C 109.54048 419.95123 109.48915 419.98839 109.44141 420.02734 C 109.08465 421.39815 108.73977 422.74615 108.37891 424.125 C 106.09291 459.31 104.16714 496.81227 99.527344 516.07227 L 103.29688 516.07227 C 103.70467 501.18605 108.07511 477.07487 113.05859 451.52148 C 112.67952 449.31973 112.42312 447.10432 112.28906 444.93359 C 112.0467 441.00889 112.19814 437.24102 112.75977 433.91992 C 113.32137 430.59872 114.13597 427.70837 116.13867 425.32617 A 4.055 4.055 0 0 1 116.50977 424.94727 A 4.055 4.055 0 0 1 117.07031 420.0625 C 117.4609 419.65625 117.84806 419.20874 118.22461 418.73633 C 118.22679 418.24187 118.22991 417.7449 118.23242 417.25195 z M 108.37891 424.125 C 108.45424 422.96546 108.53314 421.83541 108.60938 420.68164 C 105.84422 422.78948 102.53989 424.58543 98.451172 425.61719 A 4.055 4.055 0 0 1 98.224609 425.66602 C 93.673389 461.33527 89.281715 498.70964 83.1875 516.07227 L 87.636719 516.07227 C 88.786719 496.82327 99.157906 459.354 108.37891 424.125 z M 164.98047 423.77344 C 164.92452 424.93474 164.95468 426.48072 165.4082 428.41992 A 4.055 4.055 0 0 1 159.92969 433.08984 C 168.23087 465.48792 176.7694 498.33781 177.78516 516.07227 L 182.13672 516.07227 C 176.28547 498.7143 172.19548 462.1673 167.96094 427.04688 C 166.65284 425.60722 165.69812 424.41834 164.98047 423.77344 z M 96.589844 425.64062 C 94.341358 427.98634 91.098458 431.05454 86.417969 433.60352 C 79.772518 468.36029 73.131053 502.73261 66.025391 516.07227 L 71.880859 516.07227 C 72.919458 498.73323 85.683255 461.44837 97.505859 425.73242 A 4.055 4.055 0 0 1 96.589844 425.64062 z M 137.31445 427.7207 C 137.02475 427.8929 136.72187 428.09184 136.49805 428.38477 C 135.96063 429.08819 135.98436 429.2992 136.11719 429.51172 C 136.23762 429.70441 136.23674 429.677 136.5 429.57031 C 136.7082 429.48591 137.13087 429.0023 137.31445 427.7207 z M 169.37891 428.54883 C 180.6295 463.26656 192.46964 498.97767 193.53711 516.07227 L 199.17383 516.07227 C 192.38829 502.67363 186.17546 469.77613 179.9707 436.13086 C 175.00376 433.61996 171.69589 430.86882 169.37891 428.54883 z M 82.820312 435.3125 C 80.30939 436.35165 77.457517 437.20826 74.230469 437.76758 C 64.525996 475.35586 54.92754 510.67976 46.546875 516.07227 L 56.203125 516.07227 C 55.76788 502.93334 69.032973 469.51973 82.820312 435.3125 z M 184.08008 437.97266 C 197.13034 471.02194 209.42451 502.91585 209.23828 516.07227 L 218.15234 516.07227 C 209.98559 509.0865 200.8836 474.60384 191.69727 438.00781 A 4.055 4.055 0 0 1 187.36719 439.18945 C 186.20411 438.8018 185.12346 438.39086 184.08008 437.97266 z M 147.6875 463 A 4.055 4.055 0 0 1 147.21875 463.04492 C 146.61082 467.47376 145.47937 471.71943 144.00195 475.72461 C 145.72288 491.64615 146.85112 505.86305 146.57812 516.07227 L 150.01953 516.07227 C 148.13504 503.40541 147.70892 484.12906 147.6875 463 z M 118.08398 465.7168 C 117.89182 485.79055 117.30142 503.98677 115.40625 516.07227 L 118.86719 516.07227 C 118.62466 504.48242 120.25076 487.65698 122.5 469.07812 A 4.055 4.055 0 0 1 119.2168 467.41797 C 118.81678 466.8696 118.44419 466.29863 118.08398 465.7168 z M 246.00586 491.56445 C 246.00186 491.65205 245.99493 491.73875 245.99023 491.82617 C 245.99523 491.73877 246.00196 491.65213 246.00586 491.56445 z M 245.91992 492.83008 C 245.90482 492.99705 245.88704 493.16213 245.86914 493.32812 C 245.88694 493.16215 245.90502 492.99703 245.91992 492.83008 z M 245.79102 493.98438 C 245.76032 494.21715 245.72391 494.44705 245.6875 494.67773 C 245.7235 494.44729 245.76061 494.2169 245.79102 493.98438 z M 134.03516 494.01758 A 4.055 4.055 0 0 1 131.56641 495.04492 C 131.6749 503.06825 131.5462 510.24027 131.04102 516.07227 L 134.39844 516.07227 C 133.91311 509.98595 133.84302 502.46086 134.03516 494.01758 z M 245.61523 495.13086 C 245.49152 495.83979 245.34122 496.53976 245.16602 497.22656 C 245.3408 496.53881 245.49222 495.84086 245.61523 495.13086 z M 245.12695 497.37891 C 244.94001 498.09474 244.72828 498.79938 244.48828 499.48828 C 244.72851 498.79888 244.94045 498.09561 245.12695 497.37891 z M 26.796875 507.17773 C 27.074805 507.52769 27.359667 507.87021 27.654297 508.20312 C 27.359137 507.87054 27.075245 507.52752 26.796875 507.17773 z M 237.91406 509.75391 C 237.64529 510.00838 237.3711 510.25498 237.0918 510.49609 C 237.37103 510.25509 237.64533 510.00827 237.91406 509.75391 z M 236.96484 510.60547 C 236.69898 510.83174 236.42727 511.05176 236.15234 511.26562 C 236.42752 511.05158 236.69869 510.83196 236.96484 510.60547 z M 42.255859 515.95508 C 42.635479 515.99568 43.017524 516.02608 43.402344 516.04688 C 43.017554 516.02548 42.635279 515.99568 42.255859 515.95508 z"/>
  <g id="chaos">
    <path id="path3319-5" fill="#b09255"  d="m135.8 46.193c-6.4604 9.2291-12.338 21.516-12.338 34.898 6.3252 3.095 7.5107 7.9845 5.527 9.783-2.6259 2.3807-8.4001-3.1505-8.8615-12.841-5.0248 11.149 0.44324 25.219 5.5192 32.141-0.13516-7.3273 6.4828-8.608 8.7901-4.9164s-1.8556 8.7621-6.0087 8.3006c3.2302 5.5374 0.0245 11.88-5.2822 14.764 4.3838 4.9739 4.0689 7.605 2.8223 8.3298-2.8058 1.6315-5.2224-4.3768-6.6067-11.76-5.6726 1.5755-7.6594-3.258-8.5823-6.4882s-1.2694-6.1244-4.961-10.854c1.6728 7.1525 0.20476 12.796-5.0624 9.5374-4.5766-2.831-6.7714-10.439-21.999-15.515 2.0881 11.564 6.9995 17.172 10.23 20.402 3.2302 3.2302 6.6598 5.213 6.9277 7.0393 0.2582 1.7598-3.7417 3.5722-8.6897 3.7136 10.64 0.92291 19.47 2.0253 16.551 9.4466 5.581-0.84912 10.02 3.5928 12.109 6.6622 4.3034-3.892 8.1026-1.2844 7.1954 3.4613-0.52486 2.7454-2.7801 4.1786-5.2665 3.4429-1.2501-0.36991-3.7043-1.6048-2.7651-4.5812-8.2192 1.0798-13.751-1.9078-19.389-7.3715-4.7097-4.5643-15.382-9.4521-23.756-9.6944 6.3679 4.2005 22.076 16.421 14.786 18.3-6.326 1.63-8.0993-4.2756-6.7017-7.9238-18.115-2.7967-40.566 1.4327-58.383 12.699 12.69-2.3073 52.375-3.3173 52.375 4.3981 0 3.9244-4.7306 5.1715-9.2298 3.9025 6.4253 7.4138 16.139 7.8388 23.291 3.6857-5.8917-0.99048-6.4255-5.4097-1.5011-5.4097 6.2296 0 4.6079 4.1629 4.3772 6.0087 5.076-0.69218 10.544-4.1606 11.685-2.7566 1.0096 1.2425-1.4102 2.3915-3.2561 2.6222 12.45 2.3773 14.531-4.671 16.944-1.9821 0.63909 0.71223-0.14889 1.8994-3.3153 5.0658s-8.4442 5.1341-4.6155-1.0085c-10.839 5.0432-27.154 18.96-31.563 43.417 8.4833-10.217 27.691-26.935 29.382-25.367 0.98021 0.90978-5.2963 11.986-5.2963 11.986 4.1531-3.9224 6.8397-6.833 7.6729-6.147 0.99782 0.82163-0.87955 6.3313-1.341 7.4849 5.661-3.4025 8.5962-11.807 9.9679-11.309 0.97649 0.35428-0.10504 5.1863-1.4474 8.5772 3.751-2.356 7.903-8.9678 6.6582-14.147-1.0441-4.3442 0.0364-6.7248 2.2147-8.686 0 2.446 0.0566 10.273 2.429 15.901 0-3.9224 0.22934-5.5441 2.0752-5.5441 1.8458 0.00001 1.6387 6.9052-4.2316 16.199-5.8422 9.2488-8.7304 15.26-5.7332 29.536 2.0765-8.1826 4.1425-12.346 5.7917-14.332 4.0321 6.2222-0.68725 19.197 5.8148 24.875 0.23072-2.3073 2.9981-6.4429 2.0752 4.8627 2.538-4.3838 3.2135-5.527 4.3671-5.2963 1.1536 0.23072-2.3076 19.6-4.6149 27.906 13.382-17.997 21.923-32.539 14.309-62.534-2.3888 9.4178-6.6298 16.073-7.8679 14.966-1.4751-1.3188 2.1964-8.0543 1.3946-17.041-1.1396 1.869-2.2766 4.7651-3.3346 4.1543-1.3404-0.77388 1.5124-10.39 3.3904-14.065 3.8036-7.444 3.1631-14.774 4.1255-14.774 1.196 0 1.9972 7.5745 7.3715 11.77-1.8178-4.6401-2.3392-10.145-1.146-10.159 1.8601-0.0204 4.8262 15.002 13.132 18.924-1.3564-1.8014-2.7858-4.0929-0.70931-4.7851 2.0766-0.69218 12.261 13.324 14.337 16.555 0-3.6916-0.23136-7.843 11.305 2.5398-3.2302-6.9218-9.0046-15.006-0.92919-12.699-10.729-7.2679-17.069-13.03-16.261-14.529 0.63784-1.1846 3.5721-0.22446 4.9565 0.46771-5.6726-8.8656-19.17-13.134-18.247-14.749 0.9229-1.6151 6.2559 1.5812 7.871 3.1963-3.1718-4.9104-8.8603-8.3078-11.997-10.373 0.82493-1.8318 7.1327 0.96519 9.4327 2.9158 5.5794-4.8337 14.037-3.1137 14.037-1.0635 0 1.5636-3.9207 1.4278-5.4852 1.0592 11.347 7.8982 27.75 4.1694 34.618-3.8437-6.6911 3.4609-12.784 2.1684-13.22-1.8274-4.1028 0.34608-6.3607-0.0245-6.3607-2.0752 0-1.9692 4.2488-2.1982 7.5944-0.92917 5.076-6.4604 19.007-11.757 50.598-1.3907-24.688-24.688-49.989-21.341-66.301-14.065 6.6317 4.8057 4.1717 10.008-6.1326 10.008-11.12 0-14.416-7.1357-14.416-7.1357-1.1256 0.39388-3.455 1.0306-3.455 1.0306 0.6782 3.1486-3.4794 4.7329-4.7769 2.7711-1.8349-2.774 0.61756-4.6562 3.8478-4.1947 3.6278-0.79642 13.307-6.3229 15.486-11.709-4.8452 2.9994-7.8772 3.762-8.6907 2.9485-0.99892-0.99891 3.5917-5.8008 12.129-9.7232 8.5369-3.9224 14.305-11.468 15.92-16.083-5.076 6.4604-7.6116 6.0163-8.7652 4.8627s6.2478-13.174 14.093-17.097c-14.42 2.0765-20.095 10.153-23.787 13.845-3.6916 3.6916-4.8303 4.8843-5.8794 3.8352-0.98229-0.98228 3.2337-4.6382 4.7334-5.4458-12.344 3.1148-17.078 13.845-18.924 18.46-1.8458 4.6145-5.3057 5.5441-6.6901 5.5441 1.8524 3.0527-2.2576 5.6606-5.0123 3.4769-2.0259-1.606-0.046-6.5708 3.6495-4.6228 2.9692-6.5008 8.9838-7.1819 11.522-18.924-3.1734 5.5522-9.2399 10.793-11.937 8.4926-2.7683-2.3619 0.89766-9.3902 4.97-13.626-4.9292-3.8688-4.447-10.68-1.909-10.68s2.1607 2.8322 2.6501 5.6545c4.5749-5.4419 4.2297-26.705-3.2212-36.919-0.028 6.3648-1.9633 13.511-3.5784 14.664 2.4036 2.7252 0.2595 5.5013-1.5857 5.5013-2.4199 0-4.2915-3.5911-0.54705-5.8067-3.6916-14.536-4.7001-30.961-3.085-40.19z"/>
    <path id="path5019-5" fill="red" d="m142.14 159.67c-0.55582 3.388-3.5882 6.6369-6.9615 6.6369-2.9631 0-6.2427-2.8406-6.9322-6.4506 3.5115-2.9587 8.5555-4.9786 13.894-0.18627z"/>
    <path id="path5019" fill="#d0be85" d="m124.31 161.61c2.0324 3.3662 4.7385 6.8037 10.838 6.8037 6.5576 0 9.1023-4.3722 9.6895-7.9871-0.84051-0.35753-1.3697-0.498-2.6936-0.76278-0.55582 3.388-3.5882 6.6369-6.9615 6.6369-2.9631 0-6.2427-2.8406-6.9322-6.4506-1.6664 0.79433-3.1461 1.4024-3.9401 1.7599z"/>
    <path id="path3319" fill="#6e3f1e"  d="m135.8 46.193c-6.4604 9.2291-12.338 21.516-12.338 34.898 6.3252 3.095 7.5107 7.9845 5.527 9.783-2.6259 2.3807-8.4001-3.1505-8.8615-12.841-5.0248 11.149 0.44324 25.219 5.5192 32.141-0.13516-7.3273 6.4828-8.608 8.7901-4.9164s-1.8556 8.7621-6.0087 8.3006c3.2302 5.5374 0.0245 11.88-5.2822 14.764 4.3838 4.9739 4.0689 7.605 2.8223 8.3298-2.8058 1.6315-5.2224-4.3768-6.6067-11.76-5.6726 1.5755-7.6594-3.258-8.5823-6.4882s-1.2694-6.1244-4.961-10.854c1.6728 7.1525 0.20476 12.796-5.0624 9.5374-4.5766-2.831-6.7714-10.439-21.999-15.515 2.0881 11.564 6.9995 17.172 10.23 20.402 3.2302 3.2302 6.6598 5.213 6.9277 7.0393 0.2582 1.7598-3.7417 3.5722-8.6897 3.7136 10.64 0.92291 19.47 2.0253 16.551 9.4466 5.581-0.84912 10.02 3.5928 12.109 6.6622 4.3034-3.892 8.1026-1.2844 7.1954 3.4613-0.52486 2.7454-2.7801 4.1786-5.2665 3.4429-1.2501-0.36991-3.7043-1.6048-2.7651-4.5812-8.2192 1.0798-13.751-1.9078-19.389-7.3715-4.7097-4.5643-15.382-9.4521-23.756-9.6944 6.3679 4.2005 22.076 16.421 14.786 18.3-6.326 1.63-8.0993-4.2756-6.7017-7.9238-18.115-2.7967-40.566 1.4327-58.383 12.699 12.69-2.3073 52.375-3.3173 52.375 4.3981 0 3.9244-4.7306 5.1715-9.2298 3.9025 6.4253 7.4138 16.139 7.8388 23.291 3.6857-5.8917-0.99048-6.4255-5.4097-1.5011-5.4097 6.2296 0 4.6079 4.1629 4.3772 6.0087 5.076-0.69218 10.544-4.1606 11.685-2.7566 1.0096 1.2425-1.4102 2.3915-3.2561 2.6222 12.45 2.3773 14.531-4.671 16.944-1.9821 0.63909 0.71223-0.14889 1.8994-3.3153 5.0658s-8.4442 5.1341-4.6155-1.0085c-10.839 5.0432-27.154 18.96-31.563 43.417 8.4833-10.217 27.691-26.935 29.382-25.367 0.98021 0.90978-5.2963 11.986-5.2963 11.986 4.1531-3.9224 6.8397-6.833 7.6729-6.147 0.99782 0.82163-0.87955 6.3313-1.341 7.4849 5.661-3.4025 8.5962-11.807 9.9679-11.309 0.97649 0.35428-0.10504 5.1863-1.4474 8.5772 3.751-2.356 7.903-8.9678 6.6582-14.147-1.0441-4.3442 0.0364-6.7248 2.2147-8.686 0 2.446 0.0566 10.273 2.429 15.901 0-3.9224 0.22934-5.5441 2.0752-5.5441 1.8458 0.00001 1.6387 6.9052-4.2316 16.199-5.8422 9.2488-8.7304 15.26-5.7332 29.536 2.0765-8.1826 4.1425-12.346 5.7917-14.332 4.0321 6.2222-0.68725 19.197 5.8148 24.875 0.23072-2.3073 2.9981-6.4429 2.0752 4.8627 2.538-4.3838 3.2135-5.527 4.3671-5.2963 1.1536 0.23072-2.3076 19.6-4.6149 27.906 13.382-17.997 21.923-32.539 14.309-62.534-2.3888 9.4178-6.6298 16.073-7.8679 14.966-1.4751-1.3188 2.1964-8.0543 1.3946-17.041-1.1396 1.869-2.2766 4.7651-3.3346 4.1543-1.3404-0.77388 1.5124-10.39 3.3904-14.065 3.8036-7.444 3.1631-14.774 4.1255-14.774 1.196 0 1.9972 7.5745 7.3715 11.77-1.8178-4.6401-2.3392-10.145-1.146-10.159 1.8601-0.0204 4.8262 15.002 13.132 18.924-1.3564-1.8014-2.7858-4.0929-0.70931-4.7851 2.0766-0.69218 12.261 13.324 14.337 16.555 0-3.6916-0.23136-7.843 11.305 2.5398-3.2302-6.9218-9.0046-15.006-0.92919-12.699-10.729-7.2679-17.069-13.03-16.261-14.529 0.63784-1.1846 3.5721-0.22446 4.9565 0.46771-5.6726-8.8656-19.17-13.134-18.247-14.749 0.9229-1.6151 6.2559 1.5812 7.871 3.1963-3.1718-4.9104-8.8603-8.3078-11.997-10.373 0.82493-1.8318 7.1327 0.96519 9.4327 2.9158 5.5794-4.8337 14.037-3.1137 14.037-1.0635 0 1.5636-3.9207 1.4278-5.4852 1.0592 11.347 7.8982 27.75 4.1694 34.618-3.8437-6.6911 3.4609-12.784 2.1684-13.22-1.8274-4.1028 0.34608-6.3607-0.0245-6.3607-2.0752 0-1.9692 4.2488-2.1982 7.5944-0.92917 5.076-6.4604 19.007-11.757 50.598-1.3907-24.688-24.688-49.989-21.341-66.301-14.065 6.6317 4.8057 4.1717 10.008-6.1326 10.008-11.12 0-14.416-7.1357-14.416-7.1357-1.1256 0.39388-3.455 1.0306-3.455 1.0306 0.6782 3.1486-3.4794 4.7329-4.7769 2.7711-1.8349-2.774 0.61756-4.6562 3.8478-4.1947 3.6278-0.79642 13.307-6.3229 15.486-11.709-4.8452 2.9994-7.8772 3.762-8.6907 2.9485-0.99892-0.99891 3.5917-5.8008 12.129-9.7232 8.5369-3.9224 14.305-11.468 15.92-16.083-5.076 6.4604-7.6116 6.0163-8.7652 4.8627s6.2478-13.174 14.093-17.097c-14.42 2.0765-20.095 10.153-23.787 13.845-3.6916 3.6916-4.8303 4.8843-5.8794 3.8352-0.98229-0.98228 3.2337-4.6382 4.7334-5.4458-12.344 3.1148-17.078 13.845-18.924 18.46-1.8458 4.6145-5.3057 5.5441-6.6901 5.5441 1.8524 3.0527-2.2576 5.6606-5.0123 3.4769-2.0259-1.606-0.046-6.5708 3.6495-4.6228 2.9692-6.5008 8.9838-7.1819 11.522-18.924-3.1734 5.5522-9.2399 10.793-11.937 8.4926-2.7683-2.3619 0.89766-9.3902 4.97-13.626-4.9292-3.8688-4.447-10.68-1.909-10.68s2.1607 2.8322 2.6501 5.6545c4.5749-5.4419 4.2297-26.705-3.2212-36.919-0.028 6.3648-1.9633 13.511-3.5784 14.664 2.4036 2.7252 0.2595 5.5013-1.5857 5.5013-2.4199 0-4.2915-3.5911-0.54705-5.8067-3.6916-14.536-4.7001-30.961-3.085-40.19zm-2.7566 8.2077c-0.46719 8.7544 0.41973 20.492 2.9816 31.138-3.3216 3.3356-1.4849 8.8787 3.2438 8.8787 2.1959 0 4.1662-1.1591 4.8627-3.0043 0.5001-1.3249 0.16427-2.7779-0.52653-4.1193 0.79462-1.6723 1.9432-3.76 2.3539-5.0089 2.5463 6.4324 2.9995 14.276 2.3705 20.721-0.49639-2.4408-4.707-2.2482-5.8704-1.2791-2.6102 2.1743-1.2097 10.011 2.188 12.787-2.743 3.0296-7.5116 12.178-3.9347 15.656 1.9296 1.8766 5.4634-0.77714 7.3567-1.9316-1.6425 2.1945-5.5295 6.0993-6.6557 7.8808-4.7826-0.91327-6.3301 5.1158-3.7912 7.6547 3.4125 3.4125 8.975 0.87413 7.6045-3.6443 2.3525-0.16638 5.5401-1.9657 7.0818-5.8198 0.82483-2.0621 2.9044-5.8774 5.9467-9.3847 1.2534-1.445 2.7452-2.7391 4.3052-3.9645 0.1085 0.4282 0.14126 0.86684 0.43362 1.2079 0.56017 0.65353 1.5651 1.2882 2.6017 1.2079 1.0366-0.0802 1.7064-0.58497 2.292-1.084 1.171-0.99815 2.2996-2.3926 4.0884-4.1813 2.878-2.8781 5.8419-6.653 13.442-10.066-1.0018 1.1234-2.0846 2.256-2.9114 3.376-1.4007 1.8975-2.5253 3.6721-3.2521 5.1724-0.36342 0.75017-0.61401 1.4386-0.77432 2.1061-0.0802 0.33375-0.14404 0.66033-0.12389 1.084 0.0201 0.42371 0.11398 1.0432 0.65042 1.5796 0.64399 0.64399 1.7814 0.94839 3.0043 0.99113-2.5239 2.6531-5.9695 4.9758-9.7646 6.8676-5.3223 2.6531-14.219 7.6082-14.349 11.842-0.0715 2.319 2.6372 2.3207 4.8382 1.7962-2.2598 1.7042-7.0038 4.8667-10.272 4.8667-4.475 0-5.956 3.98-3.8405 7.6442 1.9593 3.3936 8.2421 1.0409 8.682-2.3066 0.16705-0.0615 0.74667-0.20664 0.94005-0.27305 3.0494 4.6816 8.9824 6.3398 14.815 6.9158 7.2235 0.71333 16.165-4.4132 11.964-11.471 14.96-6.1862 30.757-3.9058 47.809 6.2395-12.723-3.2969-30.742-3.4018-39.252 5.3874-3.4171 0.0984-8.1816-0.15937-8.6278 3.7778-0.43711 3.8564 3.6921 4.2032 6.9069 4.0264 0.72797 1.8882 2.7012 3.2841 4.6839 3.4833-4.0392 2.6091-11.994 3.2964-17.011 1.3174 2.9307-3.8484-2.722-6.2328-6.1945-6.4733-2.9854-0.2067-6.4454 0.51195-9.2608 2.23-3.525-1.655-12.303-4.449-14.042 0.52131 1.7006 1.0423 4.7779 2.9777 7.4653 4.3806-2.0897 0.0662-3.0812 1.7228-1.9718 3.089 3.8485 4.7391 11.087 6.7029 14.96 11.119-6.6459 2.5992 7.9594 13.448 11.674 16.063-0.44399 2.6739 0.30708 5.5677 1.3959 7.135-2.2944-1.8055-5.6478-2.3537-7.4161-2.2427-3.6742-5.2096-11.278-16.115-15.251-11.97-1.4899-1.8625-2.8698-3.6479-3.9222-5.8486-1.9725-2.5484-3.1556-8.0986-6.4218-8.9738-1.1768-0.31532-2.6711 1.2726-2.4839 3.1417-0.64681-2.0462-1.5007-5.193-3.5505-5.1602-3.6258 0.058-3.6698 9.8859-6.2058 16.775-1.4183 3.8527-5.4659 15.62-3.1252 17.961 0.53733 0.53733 2.3856 0.29877 3.1387 0.0733-0.97812 4.367-3.0136 11.492-0.61945 12.802 2.1686 1.187 7.902-4.3992 9.1709-8.0878 2.2728 17.615-1.6258 27.677-8.8032 39.457 1.0194-7.7918 2.5137-17.622 0.31062-20.825-1.0597-0.61184-2.8 2.4795-3.6342 3.2442 0.18622-3.6072-2.1523-6.1465-4.5778-3.2853-1.1599-2.8759-0.98516-6.216-0.99702-9.4891-0.0186-5.1344-2.8051-11.453-4.3477-14.015-0.60362 0.83097-4.0199 4.9376-4.1291 7.7126-0.1549-5.7613 3.3738-10.322 6.629-16.829 2.3746-4.7466 4.9476-10.911 4.4802-16.37-0.22009-2.5706-2.7434-4.0577-4.8456-3.1668-0.39187-2.5881-0.20555-7.8902-0.20555-12.175-5.7004 0.36148-7.9656 7.1337-6.8113 11.934 0.47262 1.9656 1.183 3.3021 0.1012 4.9194-0.40447-1.5442-1.7056-2.2752-2.8804-1.591-2.3262 1.3548-3.0978 4.3969-5.7072 6.1801-0.59929-1.454-1.5831-1.8146-3.0353-1.8893 0.81808-1.765 1.1251-4.4994-0.51519-5.2819-4.7289-2.256-20.02 12.072-24.85 16.843 5.2085-12.19 12.412-21.85 22.547-28.534-0.24903 4.6679 6.1882-0.10494 8.2706-1.7872 2.8228-2.2805 4.8649-6.0932 3.8798-7.4321-2.1634-2.9407-7.8606 3.7957-13.33 2.0156 1.9134-2.6062 0.93737-4.9431-1.5382-4.5998-2.7313 0.37883-6.2768 1.5903-8.8965 2.4809-0.62643-3.9339-3.5176-5.5049-7.1215-5.6959-5.5702-0.29523-8.2254 4.9344-6.0618 7.6842-2.6738 1.123-5.3886 0.35217-7.6918-0.92089 1.9942-0.92624 4.1362-4.6235 3.1331-7.7361-2.6977-8.3707-35.186-7.1112-43.81-6.3524 15.565-6.5081 30.606-9.5592 45.694-7.2969-2.8883 7.285 5.6535 11.815 10.434 8.503 6.523-4.5194-3.8986-13.186-9.6369-17.679 6.9003 1.3567 13.196 6.1024 16.348 8.5338 7.1998 5.554 10.638 6.8634 17.633 6.7089-0.88712 5.1833 8.9264 7.2778 10.975 1.9973 1.8324-4.7238-0.51334-11.113-7.8369-8.0767-1.5963-1.8432-4.1259-5.3612-9.1173-6.4202-1.3112-5.2198-4.8312-7.4406-9.5775-8.4193 2.2789-4.1471-3.4365-7.9955-6.5701-11.112-2.603-2.589-6.8668-6.5719-8.11-14.171 10.348 3.0425 12.191 8.6376 16.885 12.15 3.5835 2.6816 7.5953 2.2928 8.4322-1.4066 1.8796 5.6195 2.7608 10.594 9.6143 11.2 0.68531 4.2023 4.786 14.28 9.9893 11.276 2.8936-1.6707 0.28654-6.9072-1.7015-10.304 4.9949-3.2261 7.0886-7.496 6.592-13.88 5.1517-2.398 5.9946-8.0305 3.8623-11.815-2.3008-4.0837-9.2085-3.6405-11.198 0.50996-2.5282-4.5574-4.2205-10.005-4.2432-16.194 0.80534 3.4792 4.6366 8.0924 8.507 5.9075 5.2627-2.971 1.7112-12.231-3.7896-13.876 0.18503-10.881 3.4908-17.676 7.4238-25.234v0.00005z"/>
    <path id="path3321" fill="#6e3f1e"  d="m136.51 155.46c-3.5009-0.002-6.9365 1.3673-10.376 3.3141-7.2785 4.1199-11.315 2.0873-17.314-0.68139 2.538 1.8458 6.123 4.1395 12.699 4.8317 2.7687 3.6916 6.9059 7.867 13.597 7.867s10.158-2.7834 12.234-9.013c1.1536 0.69218 6.9226 0.46911 9.2298-1.146 0 0-5.2522 2.3323-11.77-2.323-2.8264-2.0189-5.5777-2.8483-8.3006-2.8495zm-1.0531 2.1681c6.1153 0 5.5446 6.1226 2.199 8.0838 2.4226-1.269 4.1535-2.8854 4.6149-5.8848 0.80755 0.11536 1.7237 0.45066 2.4159 0.6814-1.269 5.3067-4.9645 7.6192-9.6944 7.6192s-7.8378-2.6663-10.376-6.4733c0.95408-0.25257 2.3302-0.93091 3.5928-1.6106 0.11536 2.3073 1.9445 4.3904 4.3671 5.5441-2.8841-1.8458-3.6056-7.9599 2.8804-7.9599z"/>
    <path id="path3323" fill="#6e3f1e"  d="m131.45 63.551c-0.48944 1.142-2.6052 7.9921-2.7684 14.681 2.2841 1.9578 2.7687 3.4322 4.7265 6.8583-1.2564-2.2841-2.8318-17.461-1.9581-21.539zm-0.67521 5.7683c-0.33625 2.1547-0.15886 9.3294 0.8199 10.611-0.51783-0.96948-1.4998-1.978-1.9099-2.344 0.0726-2.9801 0.77068-6.6439 1.09-8.2666z"/>
    <path id="path3325" fill="#6e3f1e"  d="m146.05 91.754c-3.8108 5.8666-9.8637 5.8342-12.978 0.3407-3.4797 4.9108-7.0175 5.684-10.283 1.7964 0.3263 1.4683 1.5526 4.3235 2.6946 5.7919 5.9177-3.6568 11.712 0.88551 13.535 4.9246 0.47545-4.7453 4.4943-6.9063 7.4334-6.1326 0.19112-1.3332 0.24994-5.2363-0.40265-6.721zm-13.1 2.942c1.7351 2.0117 3.9931 3.1669 6.3804 3.1282 1.9692-0.0319 3.8801-0.8755 5.5751-2.3229 0.009 0.55255-0.0412 0.86533-0.0619 1.3318-2.4951 0.13774-4.9812 1.4979-6.3803 4.0574-1.0794-1.2293-2.352-2.3536-3.9335-3.1282-1.2056-0.59043-2.597-0.88369-4.0264-0.96015 0.85395-0.52561 1.6713-1.2429 2.4468-2.1061z"/>
    <path id="path3327" fill="#6e3f1e"  d="m132.92 214.78c-0.24472 1.3868-0.55771 5.5736-3.3312 7.3682 1.0805 6.2665-0.3314 9.3102 1.0634 13.08 1.828-0.71548 3.8632-0.69429 4.374 1.2635 3.7944-4.742 6.6548-1.31 6.5843 11.172 2.4636-5.2487 4.1427-17.55 3.6532-23.26-7.3417 8.6469-13.789 4.2442-8.9057-6.6192-1.6315-0.16315-2.4591-1.0466-3.438-3.0043zm0.68879 4.2999c0.172 0.0537 0.76143 0.0782 0.85558 0.12602-3.0787 8.7587-0.25624 13.38 8.9244 9.7595-0.0884 2.4168 0.19336 5.8545-0.80528 7.836-1.2605-3.2912-4.5184-5.2603-7.5785-2.9492-0.67796-0.82566-2.3518-1.44-3.3993-1.9007-0.011-2.9431 0.19391-6.3946-0.13677-9.6785 1.2624-1.2014 1.7203-2.6852 2.1399-3.1933z"/>
    <path id="path3329" fill="#6e3f1e"  d="m104.86 178.72c-6.6495 4.3654-12.889 12.443-17.035 19.048 6.1996-5.9129 11.898-9.4768 15.678-11.339-2.6692-1.2958-2.9653-4.1506 1.3568-7.7092zm-2.7068 7.6545c-1.4291 0.44247-6.6959 3.5148-9.0214 5.428 1.8562-3.2003 5.7924-7.2844 7.6708-8.8945-0.49239 1.1798-0.26448 2.863 1.3506 3.4665z"/>
    <circle id="path3331" cx="135" cy="160" r="1.5" fill="#6e3f1e" />
    <path id="path3333" fill="#6e3f1e"  d="m85.873 109.41c0.39189 6.9432 15.63 15.403 13.721 21.216 5.5374 2.1919 8.7005 3.4584 9.1059 8.3316 1.9414 0.0594 5.1564 1.8068 7.9599 5.0485 7.9601-1.7872 11.126 5.4859 8.11 11.088-2.8505 5.2941-10.677 5.6938-12.911-0.40264-11.387 0.0816-17.118-7.2788-24.156-11.342 10.498 7.9601 2.7863 14.749-2.6357 14.749-5.4221 0-9.5737-3.5072-10.035-10.198-10.821 0-19.182 0.70801-29.129 3.246 5.3067 0 18.643 0.0572 27.147 3.824 7.9659 3.5285 5.2102 9.9354 2.7875 12.358 1.1536 0.57681 2.3966 0.56289 2.9734 0.2168-0.34609-2.6534 1.2967-8.1768 6.9069-8.1768s7.525 0.68717 9.6015 4.9556c10.267-4.2684 12.555-1.749 12.671 0.90432 3.2862-1.5393 6.1562-1.156 6.5969-0.23598 4.7561-1.2542 5.9292 1.2798 5.6341 2.8519-0.55291 2.9449-3.2702 7.103-9.7593 10.271 4.3756 0.9171 4.7199 4.5882 0.17755 7.4316 0.7773 0.90588 0.51763 2.8423-0.67005 4.9491 1.269-1.1536 2.4275-0.33982 3.0043 0.92918 0.92291-2.1919 3.802-5.1841 5.5324-5.1841-1.3844-8.0754 2.5293-14.762 7.2592-14.762 2.9433 0 2.7875 1.9278 2.7875 11.893 7.614 0 4.9453 11.169 2.292 18.553 3.1148-3.807 2.8944-0.004 2.6636 6.2255 0.9229-4.0377 5.6379-20.398 6.9069-26.513 1.269-6.1142 5.1935-4.514 7.1547-1.0531 4.8453-3.3455 8.5542 5.763 12.477 13.031 1.6151-0.34609 4.6144-0.8058 8.306 2.4244s4.8451 5.6769 7.9599 10.407c0.23073-0.57683 1.8484-0.81608 3.8096-0.12389-0.80755-1.1536-1.1599-2.9967-0.92918-4.1503 0 0-0.11751 0.57331-7.1547-5.0795s-5.2025-9.1122-3.9335-10.035c-1.3844-0.57681-3.9177-2.4154-9.5705-5.7609s-6.0047-6.7049-4.2742-7.7431c-1.3844-1.6151-5.1796-3.565-7.3715-4.0264 4.1531-7.7293 11.413-4.9794 17.066-2.7875 1.1536-0.9229 3.1263-2.6358 8.5484-2.6358 6.9218 0 10.024 4.0291 10.716 7.3746 1.7305 0.57681 6.1119 0.69757 9.2267-0.45607-13.774-3.289-13.804-10.307 0.34383-13.265 7.9751-8.2502 22.739-8.0884 30.353-6.4733-7.2679-4.1531-23.676-6.927-35.097-1.3895 2.8841 8.1908-9.1893 11.672-15.419 11.672-6.2296 0-8.7773-0.98409-13.623-5.714 0 0-1.2014-0.0662-1.7782-0.0662-3.4609 5.076-11.267 2.5388-11.267-3.8523 0-7.1986 8.1933-4.451 11.77-7.6812-4.1531-2.6534-1.3755-5.0808 4.7388-10.964 6.1143-5.8835 10.838-6.7035 14.991-9.8183-3.1148-1.0383-1.502-5.878 0.80528-8.3006-2.7687 1.0383-4.8496 4.5121-6.3494 6.4733-1.4997 1.9612-3.2269 3.4604-7.4954 3.345 0 0.80755 1.4957 3.5807-1.7345 6.3494s-6.1016 2.174-6.1016-1.5176c-0.9229 1.1536-1.9544 3.6983-2.4159 5.5441-0.46146 1.8458-2.5653 4.8519-6.603 5.8902-1.1536 4.3838-5.513 7.0236-9.7814 4.4856s-4.4466-11.838 3.0577-10.859c0.34609-0.46145 0.89515-1.9502 1.7225-2.9407-6.7133 0.47546-6.1541-6.9269-1.0945-15.253-0.92292-1.8458-1.8305-3.9245-2.292-7.1547-0.57682 1.7304-2.0854 4.2643-4.7388 6.2255 1.0383 5.5374-1.5149 9.9138-5.668 13.721 3.7988 8.0918 1.2641 12.358-3.0043 12.358s-7.9803-5.1662-9.1059-11.893c-4.4992-0.11536-7.1447-3.3454-9.1059-7.9599-11.882 1.7304-12.482-9.7324-21.681-12.575zm52.87 3.6857c0.41071 1.3619 0.84072 2.5432 1.3318 3.5618-2.3686 4.0601-3.7507 7.913-3.7477 11.026 0.002 2.1063 1.9222 4.9896 4.3799 5.0283-0.14336 0.27829-0.36567 0.85632-0.53198 1.2295-8.1837 0.34165-7.7194 9.797-3.0426 12.883 4.7111 3.1088 9.5717 0.23285 11.476-4.5168 4.795-1.2587 6.0308-5.2054 7.8505-9.1112 1.003 1.087 1.9869 1.1463 3.345 0.8982-2.8953 2.7232-6.5122 5.573-5.1383 9.7308-1.7142 2.0395-9.9763 0.13215-9.9763 8.1094 0 6.9909 7.3434 10.67 12.628 5.8453 0.39627 0.0239 0.55193-0.0741 0.81381-0.0534 3.6769 3.4741 6.6714 4.6194 10.593 4.9556-2.0576 0.61252-3.7982 1.6584-5.0485 2.6017-5.4088-2.8034-13.6-5.3561-18.279 5.0005 2.2712 0.73507 5.4364 2.2549 7.0981 3.517-2.0898 5.4481 7.8332 10.047 12.804 13.465-0.24422 0.73969-0.0502 3.0178 0.44801 4.532-1.6489-0.14957-3.323-0.40349-4.7794-0.22936-2.7788-4.9738-7.844-14.753-12.333-13.11-4.2789-5.2724-8.7667-2.8473-9.8035 1.8925-1.3099 5.9883-2.6022 11.998-3.8244 17.993-0.2428-0.69619-0.63272-1.2082-1.2474-1.4131 1.6317-5.4166 2.2813-14.001-3.3224-15.661 0.33504-4.578 0.88808-11.045-4.6707-11.061-7.4876-0.0223-9.1679 10.228-9.1679 14.228-0.66491 0.63146-2.2684 2.0327-2.8617 2.8623-0.27695-0.44535-0.75606 0.27037-1.146 0.13741 0.0373-0.51961 0.13662-1.5432 0.0846-1.8086 2.876-2.2258 3.2608-5.562 0.609-7.9857 3.4451-2.3306 8.5794-6.9021 8.5794-9.9732 0-3.8856-3.9053-3.8552-6.8899-3.4137-0.36518-0.91723-4.3686-1.7168-6.3834-0.77036-0.80696-3.0838-8.7033-3.0531-12.468-1.7391-0.61033-1.6658-3.4117-3.4779-6.0005-3.5277 2.6842-0.605 5.1077-5.5404 3.9803-7.9591 2.9059 2.8909 10.517 6.4114 17.892 6.7009 1.3588 1.7051 4.125 3.2902 6.9893 3.1518 3.0667-0.14814 5.9558-1.776 7.5263-4.3671 1.6679-2.7517 1.4215-6.2666-0.37167-8.982-1.7035-2.5796-4.926-4.3432-9.013-4.0264-2.6814-2.7238-5.1157-4.4409-7.4334-4.8627-0.40682-2.1527-1.297-3.9056-2.8185-5.0795-1.7288-1.3338-4.7152-1.7644-5.7919-2.9424 1.0951-1.5395-1.5675-4.8253-3.2041-6.3309-1.5676-1.4422-9.9938-9.8597-10.733-13.033 6.3043 2.7554 9.1018 13.082 19.636 12.798 0.94208 2.0479 2.2267 3.7185 3.6871 5.1091 1.4171 1.3494 3.0656 2.3208 5.1401 2.6031 0.6441 3.1769 1.7954 6.0319 3.407 8.1768 1.7594 2.3417 4.1022 3.9335 6.752 3.9335 2.56 0 4.8806-1.4464 5.7299-3.9954 0.78512-2.3564-0.0789-5.668-2.1614-9.4551 4.0555-3.6156 7.1243-8.0119 6.4046-13.403 1.2314-1.0108 2.2592-2.0723 3.0043-3.1592h-0.00001zm35.866 7.1237c-0.0776 0.78035-0.13938 1.5748 0.15487 2.3229 0.10339 0.26289 0.32561 0.4753 0.49556 0.71237-2.7246 1.7034-5.815 3.004-9.6015 5.7299 0.1579-0.52387 0.35953-1.0536 0.37167-1.5176 0.0139-0.53208-0.0536-0.93257-0.12389-1.3318 3.5419-0.30597 5.6339-1.89 7.0308-3.7167 0.499-0.65253 1.0908-1.4389 1.6725-2.199zm30.539 28.557c0.74183 0.008 1.4689 0.0252 2.199 0.0619 1.4624 0.0736 2.7094 0.37363 4.0884 0.55751-1.1841 0.0677-2.291-0.0143-3.4999 0.15486-5.6644 0.7924-11.465 2.826-15.703 6.9998-1.093 0.0584-2.3118 0.25097-3.6238 0.5575 1.5758-1.6955 1.4887-4.0712 1.177-6.2255 4.7435-1.4971 10.169-2.1598 15.362-2.1061zm-131.27 1.0779c-0.09911 1.1016 0.36927 3.1271 1.187 4.1076-3.4904-2.0772-7.9446-2.8835-13.181-3.7494 3.9174-0.46432 9.9268-0.34152 11.994-0.35817zm4.0037 7.0059c1.2703 1.0441 2.7575 1.6771 4.3981 2.0442-1.074 0.50841-1.8536 1.2806-2.5397 2.1061-0.10311-1.4149-0.6929-2.8306-1.8584-4.1503zm103.76 4.491c-0.81706 1.1703-1.0107 2.4568-0.96015 3.8096-1.5593-1.2956-3.7191-2.1374-6.3184-2.4778 2.2508-0.11208 4.7268-0.54101 7.2786-1.3318zm1.9362 7.3475c0.75402 0.55417 2.9256 1.4224 4.0244 1.8694-1.1108 0.26123-2.713 0.0562-3.442-0.0718-0.16498-0.50733-0.31003-1.3078-0.58237-1.7977zm-10.237 30.966c1.5157 1.1571 2.9889 2.3856 4.6149 3.376-0.008 0.56484-0.0166 1.1023 0.12389 1.6725-0.46014-0.19996-0.87914 0.0207-1.3318 0.0619-1.2475-1.9338-2.3498-3.6515-3.407-5.1105z"/>
    <path id="path3335" fill="#6e3f1e" stroke-width=".3" d="m106.88 180.29c-1.0856 0.437-2.0191 1.0105-2.6497 1.6319-0.31531 0.31073-0.54457 0.6405-0.69741 0.99478-0.15286 0.35425-0.21987 0.77366-0.0624 1.1557 0.15745 0.382 0.50194 0.63576 0.86176 0.78364 0.35982 0.14787 0.74647 0.19998 1.1918 0.20453 0.89052 0.009 1.9638-0.22526 3.0494-0.66226 1.0856-0.43701 1.9934-1.0002 2.624-1.6216 0.31531-0.31072 0.55508-0.615 0.70792-0.96925 0.15287-0.35427 0.21988-0.77368 0.0624-1.1557-0.15745-0.382-0.50193-0.63576-0.86176-0.78363-0.3598-0.14789-0.75699-0.2255-1.2023-0.23005-0.89052-0.009-1.9381 0.21491-3.0237 0.65193zm0.43122 1.0462c0.96712-0.38935 1.8958-0.57016 2.5814-0.56316 0.34282 0.004 0.63086 0.0551 0.79955 0.12442 0.16871 0.0694 0.20512 0.13454 0.22301 0.17797 0.0179 0.0434 0.038 0.11524-0.0337 0.28132-0.0717 0.16609-0.25176 0.37638-0.49453 0.61561-0.48553 0.47845-1.2672 1.0159-2.2343 1.4052-0.96713 0.38933-1.932 0.55496-2.6176 0.54795-0.34281-0.004-0.62034-0.0295-0.78902-0.0989-0.16869-0.0694-0.20513-0.13457-0.22302-0.17799-0.0179-0.0434-0.038-0.11524 0.0337-0.28133s0.24125-0.40188 0.48402-0.64111c0.48553-0.47847 1.3034-1.0007 2.2705-1.39z" />
    <path id="path3337" fill="#6e3f1e"  d="m132.27 203.19s-2.2959 2.9442-3.438 4.7388c0 3.5893-0.0683 9.7974 0.58432 11.429 3.0811-0.75144 3.3431-11.763 2.8536-16.168zm-1.115 3.2831c-0.0316 2.632-0.1876 5.4401-0.86723 8.3316-0.31797-2.1663-0.36638-4.3777-0.40265-6.5662 0.45301-0.68675 0.71242-1.0105 1.2699-1.7654z"/>
    <path id="path3339"  d="m127.47 209.56-0.26453 3.9238c-0.81574-0.81573-1.4683-1.3052-1.4683-1.3052 0.45565-0.91952 1.4066-2.2923 1.7329-2.6186z"/>
    <path id="path3341" fill="#6e3f1e" stroke-width=".3" d="m159.14 127.27c-0.38772 0.83305-0.62874 1.6548-0.6918 2.3474-0.0315 0.34628-0.0313 0.65576 0.0504 0.95523 0.0818 0.29947 0.27157 0.62999 0.60077 0.78575s0.68331 0.0826 0.96403-0.0454c0.28073-0.12795 0.53623-0.31646 0.78025-0.5622 0.48803-0.49148 0.96091-1.2036 1.3486-2.0366 0.38774-0.83306 0.61964-1.6352 0.6827-2.3278 0.0315-0.34628 0.012-0.6649-0.0698-0.96437-0.0818-0.29948-0.25225-0.62086-0.58146-0.77661-0.32919-0.15576-0.7026-0.0917-0.98333 0.0362-0.28073 0.12795-0.51692 0.3256-0.76094 0.57134-0.48805 0.49148-0.9518 1.184-1.3395 2.017zm1.0046 0.47529c0.34063-0.73189 0.75958-1.3317 1.1176-1.6922 0.179-0.18026 0.34499-0.29655 0.44133-0.34046 0.0963-0.0439 0.0858-0.007 0.0376-0.03-0.0484-0.0229-0.0463-0.0636-0.0182 0.0391 0.0281 0.10277 0.0454 0.30582 0.0223 0.55982-0.0463 0.50802-0.23604 1.2162-0.57668 1.9481-0.34063 0.73189-0.7687 1.3512-1.1267 1.7118-0.179 0.18026-0.345 0.29655-0.44134 0.34046-0.0963 0.0439-0.0665 0.0163-0.0182 0.0391 0.0484 0.0229 0.0269 0.0545-0.00093-0.0483-0.0281-0.10277-0.0455-0.30582-0.0223-0.55983 0.0462-0.50801 0.24513-1.2358 0.58578-1.9677z" />
    <path id="path4973" fill="#6e3f1e" d="m127.66 156.61c3.1773-2.6478 10.194-5.4279 17.078 0.66194-2.9125-4.2364-10.061-7.9433-17.078-0.66194z"/>
    <path id="path4973-7" fill="#6e3f1e" d="m129.07 154.33c2.6512-2.2094 8.5061-4.5292 14.25 0.55235-2.4303-3.535-8.3956-6.6281-14.25-0.55235z"/>
    <path id="path4973-7-9" fill="#6e3f1e" d="m131.87 151c1.5114-1.2595 4.8492-2.582 8.124 0.31489-1.3855-2.0152-4.7862-3.7786-8.124-0.31489z"/>
    <path id="path5589" fill="#fff" d="m818.12 591.08c2.7878 3.4312 4.289 6.219 6.8623 7.9346 4.5241-0.35607 21.01-3.8694 41.603-1.2867 4.7179-4.289 4.7179-6.6479 5.3612-8.5779-10.294-4.289-26.163-12.009-53.826 1.93z" transform="matrix(.30867 0 0 .30867 -125.73 -20.086)" opacity=".3" filter="url(#filter5611)"/>
    <circle id="path3331-8" cx="137.2" cy="161.5" r=".4" fill="#fff" />
    <circle id="path3331-8-0" cx="136.9" cy="161.4" r=".2" fill="#fff" />
    <path id="path5659" fill="#d2c18d" fill-opacity=".9" d="m129.27 156.28c3.5894-2.8698 8.1443-3.5573 13.948 0.37445-5.142-2.4727-8.3769-2.589-13.948-0.37445z"/>
    <path id="path5659-7" fill="#d2c18d" fill-opacity=".9" d="m131.31 152.89c2.9091-1.6529 5.7521-2.5124 9.8513 0.26446-4.0992-1.6529-5.3554-1.4546-9.8513-0.26446z"/>
    <path id="path5659-7-7" fill="#d2c18d" fill-opacity=".9" d="m133.36 151.05c1.6993-0.96551 3.36-1.4676 5.7544 0.15448-2.3945-0.96551-3.1283-0.84965-5.7544-0.15448z"/>
    <path id="path5659-9" fill="#d2c18d" fill-opacity=".9" d="m128.12 169.28c3.5894 2.8699 9.2034 3.5573 15.007-0.37445-5.4437 2.3218-9.8374 2.3883-15.007 0.37445z"/>
  </g>
  <use x="0" y="0" xlink:href="#chaos" transform="rotate(180  133.55 268.5)"></use>
</svg>
